(kicad_symbol_lib
	(version 20231120)
	(generator "kicad_symbol_editor")
	(generator_version "8.0")
	(symbol "68HC11"
		(pin_names
			(offset 1.016)
		)
		(exclude_from_sim no)
		(in_bom yes)
		(on_board yes)
		(property "Reference" "U"
			(at 5.08 45.72 0)
			(effects
				(font
					(size 1.27 1.27)
				)
			)
		)
		(property "Value" "68HC11"
			(at 8.89 -45.72 0)
			(effects
				(font
					(size 1.27 1.27)
				)
			)
		)
		(property "Footprint" ""
			(at 0 0 0)
			(effects
				(font
					(size 1.27 1.27)
				)
				(hide yes)
			)
		)
		(property "Datasheet" ""
			(at 0 0 0)
			(effects
				(font
					(size 1.27 1.27)
				)
				(hide yes)
			)
		)
		(property "Description" "HC11 Microcontroller"
			(at 0 0 0)
			(effects
				(font
					(size 1.27 1.27)
				)
				(hide yes)
			)
		)
		(property "ki_keywords" "MCU Microcontroller HC11"
			(at 0 0 0)
			(effects
				(font
					(size 1.27 1.27)
				)
				(hide yes)
			)
		)
		(symbol "68HC11_0_1"
			(rectangle
				(start -17.78 -43.18)
				(end 17.78 43.18)
				(stroke
					(width 0.254)
					(type default)
				)
				(fill
					(type background)
				)
			)
		)
		(symbol "68HC11_1_1"
			(pin input line
				(at 25.4 20.32 180)
				(length 7.62)
				(name "PAI/PA7"
					(effects
						(font
							(size 1.27 1.27)
						)
					)
				)
				(number "1"
					(effects
						(font
							(size 1.27 1.27)
						)
					)
				)
			)
			(pin output line
				(at 25.4 -7.62 180)
				(length 7.62)
				(name "PB6"
					(effects
						(font
							(size 1.27 1.27)
						)
					)
				)
				(number "10"
					(effects
						(font
							(size 1.27 1.27)
						)
					)
				)
			)
			(pin output line
				(at 25.4 -5.08 180)
				(length 7.62)
				(name "PB5"
					(effects
						(font
							(size 1.27 1.27)
						)
					)
				)
				(number "11"
					(effects
						(font
							(size 1.27 1.27)
						)
					)
				)
			)
			(pin output line
				(at 25.4 -2.54 180)
				(length 7.62)
				(name "PB4"
					(effects
						(font
							(size 1.27 1.27)
						)
					)
				)
				(number "12"
					(effects
						(font
							(size 1.27 1.27)
						)
					)
				)
			)
			(pin output line
				(at 25.4 0 180)
				(length 7.62)
				(name "PB3"
					(effects
						(font
							(size 1.27 1.27)
						)
					)
				)
				(number "13"
					(effects
						(font
							(size 1.27 1.27)
						)
					)
				)
			)
			(pin output line
				(at 25.4 2.54 180)
				(length 7.62)
				(name "PB2"
					(effects
						(font
							(size 1.27 1.27)
						)
					)
				)
				(number "14"
					(effects
						(font
							(size 1.27 1.27)
						)
					)
				)
			)
			(pin output line
				(at 25.4 5.08 180)
				(length 7.62)
				(name "PB1"
					(effects
						(font
							(size 1.27 1.27)
						)
					)
				)
				(number "15"
					(effects
						(font
							(size 1.27 1.27)
						)
					)
				)
			)
			(pin output line
				(at 25.4 7.62 180)
				(length 7.62)
				(name "A8/PB0"
					(effects
						(font
							(size 1.27 1.27)
						)
					)
				)
				(number "16"
					(effects
						(font
							(size 1.27 1.27)
						)
					)
				)
			)
			(pin input line
				(at -25.4 20.32 0)
				(length 7.62)
				(name "PE0"
					(effects
						(font
							(size 1.27 1.27)
						)
					)
				)
				(number "17"
					(effects
						(font
							(size 1.27 1.27)
						)
					)
				)
			)
			(pin input line
				(at -25.4 17.78 0)
				(length 7.62)
				(name "PE1"
					(effects
						(font
							(size 1.27 1.27)
						)
					)
				)
				(number "18"
					(effects
						(font
							(size 1.27 1.27)
						)
					)
				)
			)
			(pin input line
				(at -25.4 15.24 0)
				(length 7.62)
				(name "PE2"
					(effects
						(font
							(size 1.27 1.27)
						)
					)
				)
				(number "19"
					(effects
						(font
							(size 1.27 1.27)
						)
					)
				)
			)
			(pin output line
				(at 25.4 22.86 180)
				(length 7.62)
				(name "OC2/PA6"
					(effects
						(font
							(size 1.27 1.27)
						)
					)
				)
				(number "2"
					(effects
						(font
							(size 1.27 1.27)
						)
					)
				)
			)
			(pin input line
				(at -25.4 12.7 0)
				(length 7.62)
				(name "PE3"
					(effects
						(font
							(size 1.27 1.27)
						)
					)
				)
				(number "20"
					(effects
						(font
							(size 1.27 1.27)
						)
					)
				)
			)
			(pin passive line
				(at -25.4 -40.64 0)
				(length 7.62)
				(name "VRL"
					(effects
						(font
							(size 1.27 1.27)
						)
					)
				)
				(number "21"
					(effects
						(font
							(size 1.27 1.27)
						)
					)
				)
			)
			(pin passive line
				(at -25.4 -38.1 0)
				(length 7.62)
				(name "VRH"
					(effects
						(font
							(size 1.27 1.27)
						)
					)
				)
				(number "22"
					(effects
						(font
							(size 1.27 1.27)
						)
					)
				)
			)
			(pin power_in line
				(at 0 -50.8 90)
				(length 7.62)
				(name "GND"
					(effects
						(font
							(size 1.27 1.27)
						)
					)
				)
				(number "23"
					(effects
						(font
							(size 1.27 1.27)
						)
					)
				)
			)
			(pin input line
				(at -25.4 -35.56 0)
				(length 7.62)
				(name "MODB"
					(effects
						(font
							(size 1.27 1.27)
						)
					)
				)
				(number "24"
					(effects
						(font
							(size 1.27 1.27)
						)
					)
				)
			)
			(pin input line
				(at -25.4 -33.02 0)
				(length 7.62)
				(name "MODA"
					(effects
						(font
							(size 1.27 1.27)
						)
					)
				)
				(number "25"
					(effects
						(font
							(size 1.27 1.27)
						)
					)
				)
			)
			(pin output line
				(at -25.4 -27.94 0)
				(length 7.62)
				(name "AS"
					(effects
						(font
							(size 1.27 1.27)
						)
					)
				)
				(number "26"
					(effects
						(font
							(size 1.27 1.27)
						)
					)
				)
			)
			(pin output line
				(at -25.4 -25.4 0)
				(length 7.62)
				(name "E"
					(effects
						(font
							(size 1.27 1.27)
						)
					)
				)
				(number "27"
					(effects
						(font
							(size 1.27 1.27)
						)
					)
				)
			)
			(pin output line
				(at -25.4 -22.86 0)
				(length 7.62)
				(name "R/W"
					(effects
						(font
							(size 1.27 1.27)
						)
					)
				)
				(number "28"
					(effects
						(font
							(size 1.27 1.27)
						)
					)
				)
			)
			(pin input line
				(at -25.4 -15.24 0)
				(length 7.62)
				(name "EXTAL"
					(effects
						(font
							(size 1.27 1.27)
						)
					)
				)
				(number "29"
					(effects
						(font
							(size 1.27 1.27)
						)
					)
				)
			)
			(pin output line
				(at 25.4 25.4 180)
				(length 7.62)
				(name "OC3/PA5"
					(effects
						(font
							(size 1.27 1.27)
						)
					)
				)
				(number "3"
					(effects
						(font
							(size 1.27 1.27)
						)
					)
				)
			)
			(pin output line
				(at -25.4 -7.62 0)
				(length 7.62)
				(name "XTAL"
					(effects
						(font
							(size 1.27 1.27)
						)
					)
				)
				(number "30"
					(effects
						(font
							(size 1.27 1.27)
						)
					)
				)
			)
			(pin tri_state line
				(at 25.4 -20.32 180)
				(length 7.62)
				(name "AD0/PC0"
					(effects
						(font
							(size 1.27 1.27)
						)
					)
				)
				(number "31"
					(effects
						(font
							(size 1.27 1.27)
						)
					)
				)
			)
			(pin tri_state line
				(at 25.4 -22.86 180)
				(length 7.62)
				(name "PC1"
					(effects
						(font
							(size 1.27 1.27)
						)
					)
				)
				(number "32"
					(effects
						(font
							(size 1.27 1.27)
						)
					)
				)
			)
			(pin tri_state line
				(at 25.4 -25.4 180)
				(length 7.62)
				(name "PC2"
					(effects
						(font
							(size 1.27 1.27)
						)
					)
				)
				(number "33"
					(effects
						(font
							(size 1.27 1.27)
						)
					)
				)
			)
			(pin tri_state line
				(at 25.4 -27.94 180)
				(length 7.62)
				(name "PC3"
					(effects
						(font
							(size 1.27 1.27)
						)
					)
				)
				(number "34"
					(effects
						(font
							(size 1.27 1.27)
						)
					)
				)
			)
			(pin tri_state line
				(at 25.4 -30.48 180)
				(length 7.62)
				(name "PC4"
					(effects
						(font
							(size 1.27 1.27)
						)
					)
				)
				(number "35"
					(effects
						(font
							(size 1.27 1.27)
						)
					)
				)
			)
			(pin tri_state line
				(at 25.4 -33.02 180)
				(length 7.62)
				(name "PC5"
					(effects
						(font
							(size 1.27 1.27)
						)
					)
				)
				(number "36"
					(effects
						(font
							(size 1.27 1.27)
						)
					)
				)
			)
			(pin tri_state line
				(at 25.4 -35.56 180)
				(length 7.62)
				(name "PC6"
					(effects
						(font
							(size 1.27 1.27)
						)
					)
				)
				(number "37"
					(effects
						(font
							(size 1.27 1.27)
						)
					)
				)
			)
			(pin tri_state line
				(at 25.4 -38.1 180)
				(length 7.62)
				(name "AD7/PC7"
					(effects
						(font
							(size 1.27 1.27)
						)
					)
				)
				(number "38"
					(effects
						(font
							(size 1.27 1.27)
						)
					)
				)
			)
			(pin input input_low
				(at -25.4 0 0)
				(length 7.62)
				(name "RESET"
					(effects
						(font
							(size 1.27 1.27)
						)
					)
				)
				(number "39"
					(effects
						(font
							(size 1.27 1.27)
						)
					)
				)
			)
			(pin output line
				(at 25.4 27.94 180)
				(length 7.62)
				(name "OC4/PA4"
					(effects
						(font
							(size 1.27 1.27)
						)
					)
				)
				(number "4"
					(effects
						(font
							(size 1.27 1.27)
						)
					)
				)
			)
			(pin input input_low
				(at -25.4 2.54 0)
				(length 7.62)
				(name "XIRQ"
					(effects
						(font
							(size 1.27 1.27)
						)
					)
				)
				(number "40"
					(effects
						(font
							(size 1.27 1.27)
						)
					)
				)
			)
			(pin input input_low
				(at -25.4 5.08 0)
				(length 7.62)
				(name "IRQ"
					(effects
						(font
							(size 1.27 1.27)
						)
					)
				)
				(number "41"
					(effects
						(font
							(size 1.27 1.27)
						)
					)
				)
			)
			(pin input line
				(at -25.4 40.64 0)
				(length 7.62)
				(name "PD0/RX"
					(effects
						(font
							(size 1.27 1.27)
						)
					)
				)
				(number "42"
					(effects
						(font
							(size 1.27 1.27)
						)
					)
				)
			)
			(pin input line
				(at -25.4 38.1 0)
				(length 7.62)
				(name "PD1/TX"
					(effects
						(font
							(size 1.27 1.27)
						)
					)
				)
				(number "43"
					(effects
						(font
							(size 1.27 1.27)
						)
					)
				)
			)
			(pin input line
				(at -25.4 35.56 0)
				(length 7.62)
				(name "PD2/MISO"
					(effects
						(font
							(size 1.27 1.27)
						)
					)
				)
				(number "44"
					(effects
						(font
							(size 1.27 1.27)
						)
					)
				)
			)
			(pin input line
				(at -25.4 33.02 0)
				(length 7.62)
				(name "PD3/MOSI"
					(effects
						(font
							(size 1.27 1.27)
						)
					)
				)
				(number "45"
					(effects
						(font
							(size 1.27 1.27)
						)
					)
				)
			)
			(pin input line
				(at -25.4 30.48 0)
				(length 7.62)
				(name "PD4/SCLK"
					(effects
						(font
							(size 1.27 1.27)
						)
					)
				)
				(number "46"
					(effects
						(font
							(size 1.27 1.27)
						)
					)
				)
			)
			(pin input line
				(at -25.4 27.94 0)
				(length 7.62)
				(name "PD5/SS-"
					(effects
						(font
							(size 1.27 1.27)
						)
					)
				)
				(number "47"
					(effects
						(font
							(size 1.27 1.27)
						)
					)
				)
			)
			(pin power_in line
				(at 0 50.8 270)
				(length 7.62)
				(name "VCC"
					(effects
						(font
							(size 1.27 1.27)
						)
					)
				)
				(number "48"
					(effects
						(font
							(size 1.27 1.27)
						)
					)
				)
			)
			(pin output line
				(at 25.4 30.48 180)
				(length 7.62)
				(name "OC5/PA3"
					(effects
						(font
							(size 1.27 1.27)
						)
					)
				)
				(number "5"
					(effects
						(font
							(size 1.27 1.27)
						)
					)
				)
			)
			(pin input line
				(at 25.4 33.02 180)
				(length 7.62)
				(name "IC1/PA2"
					(effects
						(font
							(size 1.27 1.27)
						)
					)
				)
				(number "6"
					(effects
						(font
							(size 1.27 1.27)
						)
					)
				)
			)
			(pin input line
				(at 25.4 35.56 180)
				(length 7.62)
				(name "IC2/PA1"
					(effects
						(font
							(size 1.27 1.27)
						)
					)
				)
				(number "7"
					(effects
						(font
							(size 1.27 1.27)
						)
					)
				)
			)
			(pin input line
				(at 25.4 38.1 180)
				(length 7.62)
				(name "IC3/PA0"
					(effects
						(font
							(size 1.27 1.27)
						)
					)
				)
				(number "8"
					(effects
						(font
							(size 1.27 1.27)
						)
					)
				)
			)
			(pin output line
				(at 25.4 -10.16 180)
				(length 7.62)
				(name "A15/PB7"
					(effects
						(font
							(size 1.27 1.27)
						)
					)
				)
				(number "9"
					(effects
						(font
							(size 1.27 1.27)
						)
					)
				)
			)
		)
	)
	(symbol "68HC11F1"
		(pin_names
			(offset 1.016)
		)
		(exclude_from_sim no)
		(in_bom yes)
		(on_board yes)
		(property "Reference" "U"
			(at 0 2.54 0)
			(effects
				(font
					(size 1.27 1.27)
				)
			)
		)
		(property "Value" "68HC11F1"
			(at 0 -2.54 0)
			(effects
				(font
					(size 1.27 1.27)
				)
			)
		)
		(property "Footprint" ""
			(at 0 0 0)
			(effects
				(font
					(size 1.27 1.27)
				)
				(hide yes)
			)
		)
		(property "Datasheet" "https://www.nxp.com/docs/en/data-sheet/MC68HC11FTS.pdf"
			(at 0 0 0)
			(effects
				(font
					(size 1.27 1.27)
				)
				(hide yes)
			)
		)
		(property "Description" "HC11 Microcontroller"
			(at 0 0 0)
			(effects
				(font
					(size 1.27 1.27)
				)
				(hide yes)
			)
		)
		(property "ki_keywords" "MCU Microcontroller HC11"
			(at 0 0 0)
			(effects
				(font
					(size 1.27 1.27)
				)
				(hide yes)
			)
		)
		(symbol "68HC11F1_0_1"
			(rectangle
				(start -20.32 -68.58)
				(end 20.32 68.58)
				(stroke
					(width 0.254)
					(type default)
				)
				(fill
					(type background)
				)
			)
		)
		(symbol "68HC11F1_1_1"
			(pin power_in line
				(at -2.54 -76.2 90)
				(length 7.62)
				(name "VSS"
					(effects
						(font
							(size 1.27 1.27)
						)
					)
				)
				(number "1"
					(effects
						(font
							(size 1.27 1.27)
						)
					)
				)
			)
			(pin bidirectional line
				(at 27.94 2.54 180)
				(length 7.62)
				(name "PC1"
					(effects
						(font
							(size 1.27 1.27)
						)
					)
				)
				(number "10"
					(effects
						(font
							(size 1.27 1.27)
						)
					)
				)
			)
			(pin bidirectional line
				(at 27.94 0 180)
				(length 7.62)
				(name "PC2"
					(effects
						(font
							(size 1.27 1.27)
						)
					)
				)
				(number "11"
					(effects
						(font
							(size 1.27 1.27)
						)
					)
				)
			)
			(pin input line
				(at 27.94 -2.54 180)
				(length 7.62)
				(name "PC3"
					(effects
						(font
							(size 1.27 1.27)
						)
					)
				)
				(number "12"
					(effects
						(font
							(size 1.27 1.27)
						)
					)
				)
			)
			(pin bidirectional line
				(at 27.94 -5.08 180)
				(length 7.62)
				(name "PC4"
					(effects
						(font
							(size 1.27 1.27)
						)
					)
				)
				(number "13"
					(effects
						(font
							(size 1.27 1.27)
						)
					)
				)
			)
			(pin bidirectional line
				(at 27.94 -7.62 180)
				(length 7.62)
				(name "PC5"
					(effects
						(font
							(size 1.27 1.27)
						)
					)
				)
				(number "14"
					(effects
						(font
							(size 1.27 1.27)
						)
					)
				)
			)
			(pin bidirectional line
				(at 27.94 -10.16 180)
				(length 7.62)
				(name "PC6"
					(effects
						(font
							(size 1.27 1.27)
						)
					)
				)
				(number "15"
					(effects
						(font
							(size 1.27 1.27)
						)
					)
				)
			)
			(pin bidirectional line
				(at 27.94 -12.7 180)
				(length 7.62)
				(name "D7/PC7"
					(effects
						(font
							(size 1.27 1.27)
						)
					)
				)
				(number "16"
					(effects
						(font
							(size 1.27 1.27)
						)
					)
				)
			)
			(pin input inverted
				(at -27.94 20.32 0)
				(length 7.62)
				(name "RESET"
					(effects
						(font
							(size 1.27 1.27)
						)
					)
				)
				(number "17"
					(effects
						(font
							(size 1.27 1.27)
						)
					)
				)
			)
			(pin input inverted
				(at -27.94 22.86 0)
				(length 7.62)
				(name "XIRQ"
					(effects
						(font
							(size 1.27 1.27)
						)
					)
				)
				(number "18"
					(effects
						(font
							(size 1.27 1.27)
						)
					)
				)
			)
			(pin input inverted
				(at -27.94 25.4 0)
				(length 7.62)
				(name "IRQ"
					(effects
						(font
							(size 1.27 1.27)
						)
					)
				)
				(number "19"
					(effects
						(font
							(size 1.27 1.27)
						)
					)
				)
			)
			(pin input line
				(at -27.94 -17.78 0)
				(length 7.62)
				(name "MODB/STBY"
					(effects
						(font
							(size 1.27 1.27)
						)
					)
				)
				(number "2"
					(effects
						(font
							(size 1.27 1.27)
						)
					)
				)
			)
			(pin bidirectional line
				(at 27.94 -58.42 180)
				(length 7.62)
				(name "CSPROG/PG7"
					(effects
						(font
							(size 1.27 1.27)
						)
					)
				)
				(number "20"
					(effects
						(font
							(size 1.27 1.27)
						)
					)
				)
			)
			(pin bidirectional line
				(at 27.94 -55.88 180)
				(length 7.62)
				(name "CSGEN/PG6"
					(effects
						(font
							(size 1.27 1.27)
						)
					)
				)
				(number "21"
					(effects
						(font
							(size 1.27 1.27)
						)
					)
				)
			)
			(pin bidirectional line
				(at 27.94 -53.34 180)
				(length 7.62)
				(name "CSIO1/PG5"
					(effects
						(font
							(size 1.27 1.27)
						)
					)
				)
				(number "22"
					(effects
						(font
							(size 1.27 1.27)
						)
					)
				)
			)
			(pin bidirectional line
				(at 27.94 -50.8 180)
				(length 7.62)
				(name "CSIO2/PG4"
					(effects
						(font
							(size 1.27 1.27)
						)
					)
				)
				(number "23"
					(effects
						(font
							(size 1.27 1.27)
						)
					)
				)
			)
			(pin input line
				(at 27.94 -48.26 180)
				(length 7.62)
				(name "PG3"
					(effects
						(font
							(size 1.27 1.27)
						)
					)
				)
				(number "24"
					(effects
						(font
							(size 1.27 1.27)
						)
					)
				)
			)
			(pin bidirectional line
				(at 27.94 -45.72 180)
				(length 7.62)
				(name "PG2"
					(effects
						(font
							(size 1.27 1.27)
						)
					)
				)
				(number "25"
					(effects
						(font
							(size 1.27 1.27)
						)
					)
				)
			)
			(pin bidirectional line
				(at 27.94 -43.18 180)
				(length 7.62)
				(name "PG1"
					(effects
						(font
							(size 1.27 1.27)
						)
					)
				)
				(number "26"
					(effects
						(font
							(size 1.27 1.27)
						)
					)
				)
			)
			(pin bidirectional line
				(at 27.94 -40.64 180)
				(length 7.62)
				(name "PG0"
					(effects
						(font
							(size 1.27 1.27)
						)
					)
				)
				(number "27"
					(effects
						(font
							(size 1.27 1.27)
						)
					)
				)
			)
			(pin bidirectional line
				(at -27.94 66.04 0)
				(length 7.62)
				(name "PD0/RX"
					(effects
						(font
							(size 1.27 1.27)
						)
					)
				)
				(number "28"
					(effects
						(font
							(size 1.27 1.27)
						)
					)
				)
			)
			(pin bidirectional line
				(at -27.94 63.5 0)
				(length 7.62)
				(name "PD1/TX"
					(effects
						(font
							(size 1.27 1.27)
						)
					)
				)
				(number "29"
					(effects
						(font
							(size 1.27 1.27)
						)
					)
				)
			)
			(pin input line
				(at -27.94 -15.24 0)
				(length 7.62)
				(name "MODA/LR"
					(effects
						(font
							(size 1.27 1.27)
						)
					)
				)
				(number "3"
					(effects
						(font
							(size 1.27 1.27)
						)
					)
				)
			)
			(pin bidirectional line
				(at -27.94 60.96 0)
				(length 7.62)
				(name "PD2/MISO"
					(effects
						(font
							(size 1.27 1.27)
						)
					)
				)
				(number "30"
					(effects
						(font
							(size 1.27 1.27)
						)
					)
				)
			)
			(pin bidirectional line
				(at -27.94 58.42 0)
				(length 7.62)
				(name "PD3/MOSI"
					(effects
						(font
							(size 1.27 1.27)
						)
					)
				)
				(number "31"
					(effects
						(font
							(size 1.27 1.27)
						)
					)
				)
			)
			(pin bidirectional line
				(at -27.94 55.88 0)
				(length 7.62)
				(name "PD4/SCLK"
					(effects
						(font
							(size 1.27 1.27)
						)
					)
				)
				(number "32"
					(effects
						(font
							(size 1.27 1.27)
						)
					)
				)
			)
			(pin bidirectional line
				(at -27.94 53.34 0)
				(length 7.62)
				(name "PD5/SS-"
					(effects
						(font
							(size 1.27 1.27)
						)
					)
				)
				(number "33"
					(effects
						(font
							(size 1.27 1.27)
						)
					)
				)
			)
			(pin power_in line
				(at -2.54 76.2 270)
				(length 7.62)
				(name "VDD"
					(effects
						(font
							(size 1.27 1.27)
						)
					)
				)
				(number "34"
					(effects
						(font
							(size 1.27 1.27)
						)
					)
				)
			)
			(pin bidirectional line
				(at 27.94 45.72 180)
				(length 7.62)
				(name "PA1/PA7"
					(effects
						(font
							(size 1.27 1.27)
						)
					)
				)
				(number "35"
					(effects
						(font
							(size 1.27 1.27)
						)
					)
				)
			)
			(pin bidirectional line
				(at 27.94 48.26 180)
				(length 7.62)
				(name "OC2/PA6"
					(effects
						(font
							(size 1.27 1.27)
						)
					)
				)
				(number "36"
					(effects
						(font
							(size 1.27 1.27)
						)
					)
				)
			)
			(pin bidirectional line
				(at 27.94 50.8 180)
				(length 7.62)
				(name "OC3/PA5"
					(effects
						(font
							(size 1.27 1.27)
						)
					)
				)
				(number "37"
					(effects
						(font
							(size 1.27 1.27)
						)
					)
				)
			)
			(pin output line
				(at 27.94 53.34 180)
				(length 7.62)
				(name "OC4/PA4"
					(effects
						(font
							(size 1.27 1.27)
						)
					)
				)
				(number "38"
					(effects
						(font
							(size 1.27 1.27)
						)
					)
				)
			)
			(pin bidirectional line
				(at 27.94 55.88 180)
				(length 7.62)
				(name "OC5/PA3"
					(effects
						(font
							(size 1.27 1.27)
						)
					)
				)
				(number "39"
					(effects
						(font
							(size 1.27 1.27)
						)
					)
				)
			)
			(pin output line
				(at -27.94 -5.08 0)
				(length 7.62)
				(name "E"
					(effects
						(font
							(size 1.27 1.27)
						)
					)
				)
				(number "4"
					(effects
						(font
							(size 1.27 1.27)
						)
					)
				)
			)
			(pin bidirectional line
				(at 27.94 58.42 180)
				(length 7.62)
				(name "IC1/PA2"
					(effects
						(font
							(size 1.27 1.27)
						)
					)
				)
				(number "40"
					(effects
						(font
							(size 1.27 1.27)
						)
					)
				)
			)
			(pin bidirectional line
				(at 27.94 60.96 180)
				(length 7.62)
				(name "IC2/PA1"
					(effects
						(font
							(size 1.27 1.27)
						)
					)
				)
				(number "41"
					(effects
						(font
							(size 1.27 1.27)
						)
					)
				)
			)
			(pin bidirectional line
				(at 27.94 63.5 180)
				(length 7.62)
				(name "IC3/PA0"
					(effects
						(font
							(size 1.27 1.27)
						)
					)
				)
				(number "42"
					(effects
						(font
							(size 1.27 1.27)
						)
					)
				)
			)
			(pin output line
				(at 27.94 15.24 180)
				(length 7.62)
				(name "A15/PB7"
					(effects
						(font
							(size 1.27 1.27)
						)
					)
				)
				(number "43"
					(effects
						(font
							(size 1.27 1.27)
						)
					)
				)
			)
			(pin output line
				(at 27.94 17.78 180)
				(length 7.62)
				(name "PB6"
					(effects
						(font
							(size 1.27 1.27)
						)
					)
				)
				(number "44"
					(effects
						(font
							(size 1.27 1.27)
						)
					)
				)
			)
			(pin output line
				(at 27.94 20.32 180)
				(length 7.62)
				(name "PB5"
					(effects
						(font
							(size 1.27 1.27)
						)
					)
				)
				(number "45"
					(effects
						(font
							(size 1.27 1.27)
						)
					)
				)
			)
			(pin output line
				(at 27.94 22.86 180)
				(length 7.62)
				(name "PB4"
					(effects
						(font
							(size 1.27 1.27)
						)
					)
				)
				(number "46"
					(effects
						(font
							(size 1.27 1.27)
						)
					)
				)
			)
			(pin output line
				(at 27.94 25.4 180)
				(length 7.62)
				(name "PB3"
					(effects
						(font
							(size 1.27 1.27)
						)
					)
				)
				(number "47"
					(effects
						(font
							(size 1.27 1.27)
						)
					)
				)
			)
			(pin output line
				(at 27.94 27.94 180)
				(length 7.62)
				(name "PB2"
					(effects
						(font
							(size 1.27 1.27)
						)
					)
				)
				(number "48"
					(effects
						(font
							(size 1.27 1.27)
						)
					)
				)
			)
			(pin tri_state line
				(at 27.94 30.48 180)
				(length 7.62)
				(name "PB1"
					(effects
						(font
							(size 1.27 1.27)
						)
					)
				)
				(number "49"
					(effects
						(font
							(size 1.27 1.27)
						)
					)
				)
			)
			(pin output line
				(at -27.94 -2.54 0)
				(length 7.62)
				(name "R/W"
					(effects
						(font
							(size 1.27 1.27)
						)
					)
				)
				(number "5"
					(effects
						(font
							(size 1.27 1.27)
						)
					)
				)
			)
			(pin tri_state line
				(at 27.94 33.02 180)
				(length 7.62)
				(name "A8/PB0"
					(effects
						(font
							(size 1.27 1.27)
						)
					)
				)
				(number "50"
					(effects
						(font
							(size 1.27 1.27)
						)
					)
				)
			)
			(pin bidirectional line
				(at 27.94 -35.56 180)
				(length 7.62)
				(name "A7/PF7"
					(effects
						(font
							(size 1.27 1.27)
						)
					)
				)
				(number "51"
					(effects
						(font
							(size 1.27 1.27)
						)
					)
				)
			)
			(pin bidirectional line
				(at 27.94 -33.02 180)
				(length 7.62)
				(name "PF6"
					(effects
						(font
							(size 1.27 1.27)
						)
					)
				)
				(number "52"
					(effects
						(font
							(size 1.27 1.27)
						)
					)
				)
			)
			(pin bidirectional line
				(at 27.94 -30.48 180)
				(length 7.62)
				(name "PF5"
					(effects
						(font
							(size 1.27 1.27)
						)
					)
				)
				(number "53"
					(effects
						(font
							(size 1.27 1.27)
						)
					)
				)
			)
			(pin bidirectional line
				(at 27.94 -27.94 180)
				(length 7.62)
				(name "PF4"
					(effects
						(font
							(size 1.27 1.27)
						)
					)
				)
				(number "54"
					(effects
						(font
							(size 1.27 1.27)
						)
					)
				)
			)
			(pin bidirectional line
				(at 27.94 -25.4 180)
				(length 7.62)
				(name "PF3"
					(effects
						(font
							(size 1.27 1.27)
						)
					)
				)
				(number "55"
					(effects
						(font
							(size 1.27 1.27)
						)
					)
				)
			)
			(pin bidirectional line
				(at 27.94 -22.86 180)
				(length 7.62)
				(name "PF2"
					(effects
						(font
							(size 1.27 1.27)
						)
					)
				)
				(number "56"
					(effects
						(font
							(size 1.27 1.27)
						)
					)
				)
			)
			(pin bidirectional line
				(at 27.94 -20.32 180)
				(length 7.62)
				(name "PF1"
					(effects
						(font
							(size 1.27 1.27)
						)
					)
				)
				(number "57"
					(effects
						(font
							(size 1.27 1.27)
						)
					)
				)
			)
			(pin bidirectional line
				(at 27.94 -17.78 180)
				(length 7.62)
				(name "A0/PF0"
					(effects
						(font
							(size 1.27 1.27)
						)
					)
				)
				(number "58"
					(effects
						(font
							(size 1.27 1.27)
						)
					)
				)
			)
			(pin input line
				(at -27.94 48.26 0)
				(length 7.62)
				(name "PE0"
					(effects
						(font
							(size 1.27 1.27)
						)
					)
				)
				(number "59"
					(effects
						(font
							(size 1.27 1.27)
						)
					)
				)
			)
			(pin input line
				(at -27.94 5.08 0)
				(length 7.62)
				(name "EXTAL"
					(effects
						(font
							(size 1.27 1.27)
						)
					)
				)
				(number "6"
					(effects
						(font
							(size 1.27 1.27)
						)
					)
				)
			)
			(pin input line
				(at -27.94 38.1 0)
				(length 7.62)
				(name "PE4"
					(effects
						(font
							(size 1.27 1.27)
						)
					)
				)
				(number "60"
					(effects
						(font
							(size 1.27 1.27)
						)
					)
				)
			)
			(pin input line
				(at -27.94 45.72 0)
				(length 7.62)
				(name "PE1"
					(effects
						(font
							(size 1.27 1.27)
						)
					)
				)
				(number "61"
					(effects
						(font
							(size 1.27 1.27)
						)
					)
				)
			)
			(pin input line
				(at -27.94 35.56 0)
				(length 7.62)
				(name "PE5"
					(effects
						(font
							(size 1.27 1.27)
						)
					)
				)
				(number "62"
					(effects
						(font
							(size 1.27 1.27)
						)
					)
				)
			)
			(pin input line
				(at -27.94 43.18 0)
				(length 7.62)
				(name "PE2"
					(effects
						(font
							(size 1.27 1.27)
						)
					)
				)
				(number "63"
					(effects
						(font
							(size 1.27 1.27)
						)
					)
				)
			)
			(pin input line
				(at -27.94 33.02 0)
				(length 7.62)
				(name "PE6"
					(effects
						(font
							(size 1.27 1.27)
						)
					)
				)
				(number "64"
					(effects
						(font
							(size 1.27 1.27)
						)
					)
				)
			)
			(pin input line
				(at -27.94 40.64 0)
				(length 7.62)
				(name "PE3"
					(effects
						(font
							(size 1.27 1.27)
						)
					)
				)
				(number "65"
					(effects
						(font
							(size 1.27 1.27)
						)
					)
				)
			)
			(pin input line
				(at -27.94 30.48 0)
				(length 7.62)
				(name "PE7"
					(effects
						(font
							(size 1.27 1.27)
						)
					)
				)
				(number "66"
					(effects
						(font
							(size 1.27 1.27)
						)
					)
				)
			)
			(pin passive line
				(at -27.94 -25.4 0)
				(length 7.62)
				(name "VRL"
					(effects
						(font
							(size 1.27 1.27)
						)
					)
				)
				(number "67"
					(effects
						(font
							(size 1.27 1.27)
						)
					)
				)
			)
			(pin passive line
				(at -27.94 -22.86 0)
				(length 7.62)
				(name "VRH"
					(effects
						(font
							(size 1.27 1.27)
						)
					)
				)
				(number "68"
					(effects
						(font
							(size 1.27 1.27)
						)
					)
				)
			)
			(pin output line
				(at -27.94 12.7 0)
				(length 7.62)
				(name "XTAL"
					(effects
						(font
							(size 1.27 1.27)
						)
					)
				)
				(number "7"
					(effects
						(font
							(size 1.27 1.27)
						)
					)
				)
			)
			(pin output line
				(at -27.94 -35.56 0)
				(length 7.62)
				(name "4XOUT"
					(effects
						(font
							(size 1.27 1.27)
						)
					)
				)
				(number "8"
					(effects
						(font
							(size 1.27 1.27)
						)
					)
				)
			)
			(pin bidirectional line
				(at 27.94 5.08 180)
				(length 7.62)
				(name "D0/PC0"
					(effects
						(font
							(size 1.27 1.27)
						)
					)
				)
				(number "9"
					(effects
						(font
							(size 1.27 1.27)
						)
					)
				)
			)
		)
	)
	(symbol "68HC11_PLCC"
		(pin_names
			(offset 1.016)
		)
		(exclude_from_sim no)
		(in_bom yes)
		(on_board yes)
		(property "Reference" "U"
			(at 7.62 45.72 0)
			(effects
				(font
					(size 1.27 1.27)
				)
			)
		)
		(property "Value" "68HC11_PLCC"
			(at 12.7 -46.99 0)
			(effects
				(font
					(size 1.27 1.27)
				)
			)
		)
		(property "Footprint" ""
			(at 0 0 0)
			(effects
				(font
					(size 1.27 1.27)
				)
				(hide yes)
			)
		)
		(property "Datasheet" ""
			(at 0 0 0)
			(effects
				(font
					(size 1.27 1.27)
				)
				(hide yes)
			)
		)
		(property "Description" "HC11 Microcontroller, PLCC-52"
			(at 0 0 0)
			(effects
				(font
					(size 1.27 1.27)
				)
				(hide yes)
			)
		)
		(property "ki_keywords" "MCU Microcontroller HC11"
			(at 0 0 0)
			(effects
				(font
					(size 1.27 1.27)
				)
				(hide yes)
			)
		)
		(symbol "68HC11_PLCC_0_1"
			(rectangle
				(start -17.78 -43.18)
				(end 17.78 43.18)
				(stroke
					(width 0.254)
					(type default)
				)
				(fill
					(type background)
				)
			)
		)
		(symbol "68HC11_PLCC_1_1"
			(pin power_in line
				(at 0 -50.8 90)
				(length 7.62)
				(name "VSS"
					(effects
						(font
							(size 1.27 1.27)
						)
					)
				)
				(number "1"
					(effects
						(font
							(size 1.27 1.27)
						)
					)
				)
			)
			(pin tri_state line
				(at 25.4 -22.86 180)
				(length 7.62)
				(name "AD1/PC1"
					(effects
						(font
							(size 1.27 1.27)
						)
					)
				)
				(number "10"
					(effects
						(font
							(size 1.27 1.27)
						)
					)
				)
			)
			(pin tri_state line
				(at 25.4 -25.4 180)
				(length 7.62)
				(name "AD2/PC2"
					(effects
						(font
							(size 1.27 1.27)
						)
					)
				)
				(number "11"
					(effects
						(font
							(size 1.27 1.27)
						)
					)
				)
			)
			(pin tri_state line
				(at 25.4 -27.94 180)
				(length 7.62)
				(name "AD3/PC3"
					(effects
						(font
							(size 1.27 1.27)
						)
					)
				)
				(number "12"
					(effects
						(font
							(size 1.27 1.27)
						)
					)
				)
			)
			(pin tri_state line
				(at 25.4 -30.48 180)
				(length 7.62)
				(name "AD4/PC4"
					(effects
						(font
							(size 1.27 1.27)
						)
					)
				)
				(number "13"
					(effects
						(font
							(size 1.27 1.27)
						)
					)
				)
			)
			(pin tri_state line
				(at 25.4 -33.02 180)
				(length 7.62)
				(name "AD5/PC5"
					(effects
						(font
							(size 1.27 1.27)
						)
					)
				)
				(number "14"
					(effects
						(font
							(size 1.27 1.27)
						)
					)
				)
			)
			(pin tri_state line
				(at 25.4 -35.56 180)
				(length 7.62)
				(name "AD6/PC6"
					(effects
						(font
							(size 1.27 1.27)
						)
					)
				)
				(number "15"
					(effects
						(font
							(size 1.27 1.27)
						)
					)
				)
			)
			(pin tri_state line
				(at 25.4 -38.1 180)
				(length 7.62)
				(name "AD7/PC7"
					(effects
						(font
							(size 1.27 1.27)
						)
					)
				)
				(number "16"
					(effects
						(font
							(size 1.27 1.27)
						)
					)
				)
			)
			(pin input input_low
				(at -25.4 0 0)
				(length 7.62)
				(name "RESET"
					(effects
						(font
							(size 1.27 1.27)
						)
					)
				)
				(number "17"
					(effects
						(font
							(size 1.27 1.27)
						)
					)
				)
			)
			(pin input line
				(at -25.4 2.54 0)
				(length 7.62)
				(name "XIRQ"
					(effects
						(font
							(size 1.27 1.27)
						)
					)
				)
				(number "18"
					(effects
						(font
							(size 1.27 1.27)
						)
					)
				)
			)
			(pin input line
				(at -25.4 5.08 0)
				(length 7.62)
				(name "IRQ"
					(effects
						(font
							(size 1.27 1.27)
						)
					)
				)
				(number "19"
					(effects
						(font
							(size 1.27 1.27)
						)
					)
				)
			)
			(pin input line
				(at -25.4 -35.56 0)
				(length 7.62)
				(name "MODB"
					(effects
						(font
							(size 1.27 1.27)
						)
					)
				)
				(number "2"
					(effects
						(font
							(size 1.27 1.27)
						)
					)
				)
			)
			(pin bidirectional line
				(at -25.4 40.64 0)
				(length 7.62)
				(name "PD0/RX"
					(effects
						(font
							(size 1.27 1.27)
						)
					)
				)
				(number "20"
					(effects
						(font
							(size 1.27 1.27)
						)
					)
				)
			)
			(pin bidirectional line
				(at -25.4 38.1 0)
				(length 7.62)
				(name "PD1/TX"
					(effects
						(font
							(size 1.27 1.27)
						)
					)
				)
				(number "21"
					(effects
						(font
							(size 1.27 1.27)
						)
					)
				)
			)
			(pin bidirectional line
				(at -25.4 35.56 0)
				(length 7.62)
				(name "PD2"
					(effects
						(font
							(size 1.27 1.27)
						)
					)
				)
				(number "22"
					(effects
						(font
							(size 1.27 1.27)
						)
					)
				)
			)
			(pin input line
				(at -25.4 33.02 0)
				(length 7.62)
				(name "PD3"
					(effects
						(font
							(size 1.27 1.27)
						)
					)
				)
				(number "23"
					(effects
						(font
							(size 1.27 1.27)
						)
					)
				)
			)
			(pin bidirectional line
				(at -25.4 30.48 0)
				(length 7.62)
				(name "PD4"
					(effects
						(font
							(size 1.27 1.27)
						)
					)
				)
				(number "24"
					(effects
						(font
							(size 1.27 1.27)
						)
					)
				)
			)
			(pin bidirectional line
				(at -25.4 27.94 0)
				(length 7.62)
				(name "PD5"
					(effects
						(font
							(size 1.27 1.27)
						)
					)
				)
				(number "25"
					(effects
						(font
							(size 1.27 1.27)
						)
					)
				)
			)
			(pin power_in line
				(at 0 50.8 270)
				(length 7.62)
				(name "VDD"
					(effects
						(font
							(size 1.27 1.27)
						)
					)
				)
				(number "26"
					(effects
						(font
							(size 1.27 1.27)
						)
					)
				)
			)
			(pin input line
				(at 25.4 20.32 180)
				(length 7.62)
				(name "PA1/PA7"
					(effects
						(font
							(size 1.27 1.27)
						)
					)
				)
				(number "27"
					(effects
						(font
							(size 1.27 1.27)
						)
					)
				)
			)
			(pin output line
				(at 25.4 22.86 180)
				(length 7.62)
				(name "OC2/PA6"
					(effects
						(font
							(size 1.27 1.27)
						)
					)
				)
				(number "28"
					(effects
						(font
							(size 1.27 1.27)
						)
					)
				)
			)
			(pin output line
				(at 25.4 25.4 180)
				(length 7.62)
				(name "OC3/PA5"
					(effects
						(font
							(size 1.27 1.27)
						)
					)
				)
				(number "29"
					(effects
						(font
							(size 1.27 1.27)
						)
					)
				)
			)
			(pin input line
				(at -25.4 -33.02 0)
				(length 7.62)
				(name "MODA"
					(effects
						(font
							(size 1.27 1.27)
						)
					)
				)
				(number "3"
					(effects
						(font
							(size 1.27 1.27)
						)
					)
				)
			)
			(pin output line
				(at 25.4 27.94 180)
				(length 7.62)
				(name "OC4/PA4"
					(effects
						(font
							(size 1.27 1.27)
						)
					)
				)
				(number "30"
					(effects
						(font
							(size 1.27 1.27)
						)
					)
				)
			)
			(pin output line
				(at 25.4 30.48 180)
				(length 7.62)
				(name "OC5/PA3"
					(effects
						(font
							(size 1.27 1.27)
						)
					)
				)
				(number "31"
					(effects
						(font
							(size 1.27 1.27)
						)
					)
				)
			)
			(pin input line
				(at 25.4 33.02 180)
				(length 7.62)
				(name "IC1/PA2"
					(effects
						(font
							(size 1.27 1.27)
						)
					)
				)
				(number "32"
					(effects
						(font
							(size 1.27 1.27)
						)
					)
				)
			)
			(pin input line
				(at 25.4 35.56 180)
				(length 7.62)
				(name "IC2/PA1"
					(effects
						(font
							(size 1.27 1.27)
						)
					)
				)
				(number "33"
					(effects
						(font
							(size 1.27 1.27)
						)
					)
				)
			)
			(pin input line
				(at 25.4 38.1 180)
				(length 7.62)
				(name "IC3/PA0"
					(effects
						(font
							(size 1.27 1.27)
						)
					)
				)
				(number "34"
					(effects
						(font
							(size 1.27 1.27)
						)
					)
				)
			)
			(pin output line
				(at 25.4 -10.16 180)
				(length 7.62)
				(name "A15/PB7"
					(effects
						(font
							(size 1.27 1.27)
						)
					)
				)
				(number "35"
					(effects
						(font
							(size 1.27 1.27)
						)
					)
				)
			)
			(pin output line
				(at 25.4 -7.62 180)
				(length 7.62)
				(name "PB6"
					(effects
						(font
							(size 1.27 1.27)
						)
					)
				)
				(number "36"
					(effects
						(font
							(size 1.27 1.27)
						)
					)
				)
			)
			(pin output line
				(at 25.4 -5.08 180)
				(length 7.62)
				(name "PB5"
					(effects
						(font
							(size 1.27 1.27)
						)
					)
				)
				(number "37"
					(effects
						(font
							(size 1.27 1.27)
						)
					)
				)
			)
			(pin output line
				(at 25.4 -2.54 180)
				(length 7.62)
				(name "PB4"
					(effects
						(font
							(size 1.27 1.27)
						)
					)
				)
				(number "38"
					(effects
						(font
							(size 1.27 1.27)
						)
					)
				)
			)
			(pin output line
				(at 25.4 0 180)
				(length 7.62)
				(name "PB3"
					(effects
						(font
							(size 1.27 1.27)
						)
					)
				)
				(number "39"
					(effects
						(font
							(size 1.27 1.27)
						)
					)
				)
			)
			(pin output line
				(at -25.4 -27.94 0)
				(length 7.62)
				(name "AS"
					(effects
						(font
							(size 1.27 1.27)
						)
					)
				)
				(number "4"
					(effects
						(font
							(size 1.27 1.27)
						)
					)
				)
			)
			(pin output line
				(at 25.4 2.54 180)
				(length 7.62)
				(name "PB2"
					(effects
						(font
							(size 1.27 1.27)
						)
					)
				)
				(number "40"
					(effects
						(font
							(size 1.27 1.27)
						)
					)
				)
			)
			(pin output line
				(at 25.4 5.08 180)
				(length 7.62)
				(name "PB1"
					(effects
						(font
							(size 1.27 1.27)
						)
					)
				)
				(number "41"
					(effects
						(font
							(size 1.27 1.27)
						)
					)
				)
			)
			(pin output line
				(at 25.4 7.62 180)
				(length 7.62)
				(name "A8/PB0"
					(effects
						(font
							(size 1.27 1.27)
						)
					)
				)
				(number "42"
					(effects
						(font
							(size 1.27 1.27)
						)
					)
				)
			)
			(pin input line
				(at -25.4 25.4 0)
				(length 7.62)
				(name "PE0"
					(effects
						(font
							(size 1.27 1.27)
						)
					)
				)
				(number "43"
					(effects
						(font
							(size 1.27 1.27)
						)
					)
				)
			)
			(pin input line
				(at -25.4 15.24 0)
				(length 7.62)
				(name "PE4"
					(effects
						(font
							(size 1.27 1.27)
						)
					)
				)
				(number "44"
					(effects
						(font
							(size 1.27 1.27)
						)
					)
				)
			)
			(pin input line
				(at -25.4 22.86 0)
				(length 7.62)
				(name "PE1"
					(effects
						(font
							(size 1.27 1.27)
						)
					)
				)
				(number "45"
					(effects
						(font
							(size 1.27 1.27)
						)
					)
				)
			)
			(pin input line
				(at -25.4 12.7 0)
				(length 7.62)
				(name "PE5"
					(effects
						(font
							(size 1.27 1.27)
						)
					)
				)
				(number "46"
					(effects
						(font
							(size 1.27 1.27)
						)
					)
				)
			)
			(pin input line
				(at -25.4 20.32 0)
				(length 7.62)
				(name "PE2"
					(effects
						(font
							(size 1.27 1.27)
						)
					)
				)
				(number "47"
					(effects
						(font
							(size 1.27 1.27)
						)
					)
				)
			)
			(pin input line
				(at -25.4 10.16 0)
				(length 7.62)
				(name "PE6"
					(effects
						(font
							(size 1.27 1.27)
						)
					)
				)
				(number "48"
					(effects
						(font
							(size 1.27 1.27)
						)
					)
				)
			)
			(pin input line
				(at -25.4 17.78 0)
				(length 7.62)
				(name "PE3"
					(effects
						(font
							(size 1.27 1.27)
						)
					)
				)
				(number "49"
					(effects
						(font
							(size 1.27 1.27)
						)
					)
				)
			)
			(pin output line
				(at -25.4 -25.4 0)
				(length 7.62)
				(name "E"
					(effects
						(font
							(size 1.27 1.27)
						)
					)
				)
				(number "5"
					(effects
						(font
							(size 1.27 1.27)
						)
					)
				)
			)
			(pin input line
				(at -25.4 7.62 0)
				(length 7.62)
				(name "PE7"
					(effects
						(font
							(size 1.27 1.27)
						)
					)
				)
				(number "50"
					(effects
						(font
							(size 1.27 1.27)
						)
					)
				)
			)
			(pin passive line
				(at -25.4 -40.64 0)
				(length 7.62)
				(name "VRL"
					(effects
						(font
							(size 1.27 1.27)
						)
					)
				)
				(number "51"
					(effects
						(font
							(size 1.27 1.27)
						)
					)
				)
			)
			(pin passive line
				(at -25.4 -38.1 0)
				(length 7.62)
				(name "VRH"
					(effects
						(font
							(size 1.27 1.27)
						)
					)
				)
				(number "52"
					(effects
						(font
							(size 1.27 1.27)
						)
					)
				)
			)
			(pin output line
				(at -25.4 -22.86 0)
				(length 7.62)
				(name "R/W"
					(effects
						(font
							(size 1.27 1.27)
						)
					)
				)
				(number "6"
					(effects
						(font
							(size 1.27 1.27)
						)
					)
				)
			)
			(pin input line
				(at -25.4 -15.24 0)
				(length 7.62)
				(name "EXTAL"
					(effects
						(font
							(size 1.27 1.27)
						)
					)
				)
				(number "7"
					(effects
						(font
							(size 1.27 1.27)
						)
					)
				)
			)
			(pin output line
				(at -25.4 -7.62 0)
				(length 7.62)
				(name "XTAL"
					(effects
						(font
							(size 1.27 1.27)
						)
					)
				)
				(number "8"
					(effects
						(font
							(size 1.27 1.27)
						)
					)
				)
			)
			(pin tri_state line
				(at 25.4 -20.32 180)
				(length 7.62)
				(name "AD0/PC0"
					(effects
						(font
							(size 1.27 1.27)
						)
					)
				)
				(number "9"
					(effects
						(font
							(size 1.27 1.27)
						)
					)
				)
			)
		)
	)
	(symbol "68HC711_PLCC"
		(pin_names
			(offset 1.016)
		)
		(exclude_from_sim no)
		(in_bom yes)
		(on_board yes)
		(property "Reference" "U"
			(at 5.08 45.72 0)
			(effects
				(font
					(size 1.27 1.27)
				)
			)
		)
		(property "Value" "68HC711_PLCC"
			(at 5.08 -45.72 0)
			(effects
				(font
					(size 1.27 1.27)
				)
				(justify left)
			)
		)
		(property "Footprint" ""
			(at 0 0 0)
			(effects
				(font
					(size 1.27 1.27)
				)
				(hide yes)
			)
		)
		(property "Datasheet" ""
			(at 0 0 0)
			(effects
				(font
					(size 1.27 1.27)
				)
				(hide yes)
			)
		)
		(property "Description" "HC11 Microcontroller, PLCC-44"
			(at 0 0 0)
			(effects
				(font
					(size 1.27 1.27)
				)
				(hide yes)
			)
		)
		(property "ki_keywords" "MCU Microcontroller HC11"
			(at 0 0 0)
			(effects
				(font
					(size 1.27 1.27)
				)
				(hide yes)
			)
		)
		(symbol "68HC711_PLCC_0_1"
			(rectangle
				(start -17.78 -43.18)
				(end 17.78 43.18)
				(stroke
					(width 0.254)
					(type default)
				)
				(fill
					(type background)
				)
			)
		)
		(symbol "68HC711_PLCC_1_1"
			(pin power_in line
				(at 2.54 -50.8 90)
				(length 7.62)
				(name "EVSS"
					(effects
						(font
							(size 1.27 1.27)
						)
					)
				)
				(number "1"
					(effects
						(font
							(size 1.27 1.27)
						)
					)
				)
			)
			(pin input line
				(at 25.4 -38.1 180)
				(length 7.62)
				(name "PC7"
					(effects
						(font
							(size 1.27 1.27)
						)
					)
				)
				(number "10"
					(effects
						(font
							(size 1.27 1.27)
						)
					)
				)
			)
			(pin input inverted
				(at -25.4 2.54 0)
				(length 7.62)
				(name "XIRQ/VPP"
					(effects
						(font
							(size 1.27 1.27)
						)
					)
				)
				(number "11"
					(effects
						(font
							(size 1.27 1.27)
						)
					)
				)
			)
			(pin output line
				(at -25.4 22.86 0)
				(length 7.62)
				(name "PD7-R/W"
					(effects
						(font
							(size 1.27 1.27)
						)
					)
				)
				(number "12"
					(effects
						(font
							(size 1.27 1.27)
						)
					)
				)
			)
			(pin input line
				(at -25.4 25.4 0)
				(length 7.62)
				(name "PD6-AS"
					(effects
						(font
							(size 1.27 1.27)
						)
					)
				)
				(number "13"
					(effects
						(font
							(size 1.27 1.27)
						)
					)
				)
			)
			(pin input inverted
				(at -25.4 0 0)
				(length 7.62)
				(name "RESET"
					(effects
						(font
							(size 1.27 1.27)
						)
					)
				)
				(number "14"
					(effects
						(font
							(size 1.27 1.27)
						)
					)
				)
			)
			(pin input inverted
				(at -25.4 5.08 0)
				(length 7.62)
				(name "IRQ/CE"
					(effects
						(font
							(size 1.27 1.27)
						)
					)
				)
				(number "15"
					(effects
						(font
							(size 1.27 1.27)
						)
					)
				)
			)
			(pin input line
				(at -25.4 40.64 0)
				(length 7.62)
				(name "PD0/RX"
					(effects
						(font
							(size 1.27 1.27)
						)
					)
				)
				(number "16"
					(effects
						(font
							(size 1.27 1.27)
						)
					)
				)
			)
			(pin input line
				(at -25.4 38.1 0)
				(length 7.62)
				(name "PD1/TX"
					(effects
						(font
							(size 1.27 1.27)
						)
					)
				)
				(number "17"
					(effects
						(font
							(size 1.27 1.27)
						)
					)
				)
			)
			(pin input line
				(at -25.4 35.56 0)
				(length 7.62)
				(name "PD2"
					(effects
						(font
							(size 1.27 1.27)
						)
					)
				)
				(number "18"
					(effects
						(font
							(size 1.27 1.27)
						)
					)
				)
			)
			(pin input line
				(at -25.4 33.02 0)
				(length 7.62)
				(name "PD3"
					(effects
						(font
							(size 1.27 1.27)
						)
					)
				)
				(number "19"
					(effects
						(font
							(size 1.27 1.27)
						)
					)
				)
			)
			(pin power_in line
				(at 0 -50.8 90)
				(length 7.62)
				(name "VSS"
					(effects
						(font
							(size 1.27 1.27)
						)
					)
				)
				(number "2"
					(effects
						(font
							(size 1.27 1.27)
						)
					)
				)
			)
			(pin input line
				(at -25.4 30.48 0)
				(length 7.62)
				(name "PD4"
					(effects
						(font
							(size 1.27 1.27)
						)
					)
				)
				(number "20"
					(effects
						(font
							(size 1.27 1.27)
						)
					)
				)
			)
			(pin input line
				(at -25.4 27.94 0)
				(length 7.62)
				(name "PD5"
					(effects
						(font
							(size 1.27 1.27)
						)
					)
				)
				(number "21"
					(effects
						(font
							(size 1.27 1.27)
						)
					)
				)
			)
			(pin power_in line
				(at 0 50.8 270)
				(length 7.62)
				(name "VDD"
					(effects
						(font
							(size 1.27 1.27)
						)
					)
				)
				(number "22"
					(effects
						(font
							(size 1.27 1.27)
						)
					)
				)
			)
			(pin input line
				(at 25.4 20.32 180)
				(length 7.62)
				(name "PA1/PA7"
					(effects
						(font
							(size 1.27 1.27)
						)
					)
				)
				(number "23"
					(effects
						(font
							(size 1.27 1.27)
						)
					)
				)
			)
			(pin output line
				(at 25.4 22.86 180)
				(length 7.62)
				(name "OC2/PA6"
					(effects
						(font
							(size 1.27 1.27)
						)
					)
				)
				(number "24"
					(effects
						(font
							(size 1.27 1.27)
						)
					)
				)
			)
			(pin output line
				(at 25.4 25.4 180)
				(length 7.62)
				(name "OC3/PA5"
					(effects
						(font
							(size 1.27 1.27)
						)
					)
				)
				(number "25"
					(effects
						(font
							(size 1.27 1.27)
						)
					)
				)
			)
			(pin output line
				(at 25.4 27.94 180)
				(length 7.62)
				(name "OC4/PA4"
					(effects
						(font
							(size 1.27 1.27)
						)
					)
				)
				(number "26"
					(effects
						(font
							(size 1.27 1.27)
						)
					)
				)
			)
			(pin output line
				(at 25.4 30.48 180)
				(length 7.62)
				(name "OC5/PA3"
					(effects
						(font
							(size 1.27 1.27)
						)
					)
				)
				(number "27"
					(effects
						(font
							(size 1.27 1.27)
						)
					)
				)
			)
			(pin input line
				(at 25.4 33.02 180)
				(length 7.62)
				(name "IC1/PA2"
					(effects
						(font
							(size 1.27 1.27)
						)
					)
				)
				(number "28"
					(effects
						(font
							(size 1.27 1.27)
						)
					)
				)
			)
			(pin input line
				(at 25.4 35.56 180)
				(length 7.62)
				(name "IC2/PA1"
					(effects
						(font
							(size 1.27 1.27)
						)
					)
				)
				(number "29"
					(effects
						(font
							(size 1.27 1.27)
						)
					)
				)
			)
			(pin input line
				(at 25.4 -20.32 180)
				(length 7.62)
				(name "PC0"
					(effects
						(font
							(size 1.27 1.27)
						)
					)
				)
				(number "3"
					(effects
						(font
							(size 1.27 1.27)
						)
					)
				)
			)
			(pin input line
				(at 25.4 38.1 180)
				(length 7.62)
				(name "IC3/PA0"
					(effects
						(font
							(size 1.27 1.27)
						)
					)
				)
				(number "30"
					(effects
						(font
							(size 1.27 1.27)
						)
					)
				)
			)
			(pin output line
				(at 25.4 -10.16 180)
				(length 7.62)
				(name "PB7/OE"
					(effects
						(font
							(size 1.27 1.27)
						)
					)
				)
				(number "32"
					(effects
						(font
							(size 1.27 1.27)
						)
					)
				)
			)
			(pin output line
				(at 25.4 -7.62 180)
				(length 7.62)
				(name "PB6"
					(effects
						(font
							(size 1.27 1.27)
						)
					)
				)
				(number "33"
					(effects
						(font
							(size 1.27 1.27)
						)
					)
				)
			)
			(pin output line
				(at 25.4 -5.08 180)
				(length 7.62)
				(name "PB5"
					(effects
						(font
							(size 1.27 1.27)
						)
					)
				)
				(number "34"
					(effects
						(font
							(size 1.27 1.27)
						)
					)
				)
			)
			(pin output line
				(at 25.4 -2.54 180)
				(length 7.62)
				(name "PB4"
					(effects
						(font
							(size 1.27 1.27)
						)
					)
				)
				(number "35"
					(effects
						(font
							(size 1.27 1.27)
						)
					)
				)
			)
			(pin output line
				(at 25.4 0 180)
				(length 7.62)
				(name "PB3"
					(effects
						(font
							(size 1.27 1.27)
						)
					)
				)
				(number "36"
					(effects
						(font
							(size 1.27 1.27)
						)
					)
				)
			)
			(pin output line
				(at 25.4 2.54 180)
				(length 7.62)
				(name "PB2"
					(effects
						(font
							(size 1.27 1.27)
						)
					)
				)
				(number "37"
					(effects
						(font
							(size 1.27 1.27)
						)
					)
				)
			)
			(pin output line
				(at 25.4 5.08 180)
				(length 7.62)
				(name "PB1"
					(effects
						(font
							(size 1.27 1.27)
						)
					)
				)
				(number "38"
					(effects
						(font
							(size 1.27 1.27)
						)
					)
				)
			)
			(pin output line
				(at 25.4 7.62 180)
				(length 7.62)
				(name "PB0"
					(effects
						(font
							(size 1.27 1.27)
						)
					)
				)
				(number "39"
					(effects
						(font
							(size 1.27 1.27)
						)
					)
				)
			)
			(pin input line
				(at 25.4 -22.86 180)
				(length 7.62)
				(name "PC1"
					(effects
						(font
							(size 1.27 1.27)
						)
					)
				)
				(number "4"
					(effects
						(font
							(size 1.27 1.27)
						)
					)
				)
			)
			(pin input line
				(at -25.4 -35.56 0)
				(length 7.62)
				(name "MODB"
					(effects
						(font
							(size 1.27 1.27)
						)
					)
				)
				(number "40"
					(effects
						(font
							(size 1.27 1.27)
						)
					)
				)
			)
			(pin input line
				(at -25.4 -33.02 0)
				(length 7.62)
				(name "MODA"
					(effects
						(font
							(size 1.27 1.27)
						)
					)
				)
				(number "41"
					(effects
						(font
							(size 1.27 1.27)
						)
					)
				)
			)
			(pin output line
				(at -25.4 -25.4 0)
				(length 7.62)
				(name "E"
					(effects
						(font
							(size 1.27 1.27)
						)
					)
				)
				(number "42"
					(effects
						(font
							(size 1.27 1.27)
						)
					)
				)
			)
			(pin input line
				(at -25.4 -15.24 0)
				(length 7.62)
				(name "EXTAL"
					(effects
						(font
							(size 1.27 1.27)
						)
					)
				)
				(number "43"
					(effects
						(font
							(size 1.27 1.27)
						)
					)
				)
			)
			(pin output line
				(at -25.4 -7.62 0)
				(length 7.62)
				(name "XTAL"
					(effects
						(font
							(size 1.27 1.27)
						)
					)
				)
				(number "44"
					(effects
						(font
							(size 1.27 1.27)
						)
					)
				)
			)
			(pin input line
				(at 25.4 -25.4 180)
				(length 7.62)
				(name "PC2"
					(effects
						(font
							(size 1.27 1.27)
						)
					)
				)
				(number "5"
					(effects
						(font
							(size 1.27 1.27)
						)
					)
				)
			)
			(pin input line
				(at 25.4 -27.94 180)
				(length 7.62)
				(name "PC3"
					(effects
						(font
							(size 1.27 1.27)
						)
					)
				)
				(number "6"
					(effects
						(font
							(size 1.27 1.27)
						)
					)
				)
			)
			(pin input line
				(at 25.4 -30.48 180)
				(length 7.62)
				(name "PC4"
					(effects
						(font
							(size 1.27 1.27)
						)
					)
				)
				(number "7"
					(effects
						(font
							(size 1.27 1.27)
						)
					)
				)
			)
			(pin input line
				(at 25.4 -33.02 180)
				(length 7.62)
				(name "PC5"
					(effects
						(font
							(size 1.27 1.27)
						)
					)
				)
				(number "8"
					(effects
						(font
							(size 1.27 1.27)
						)
					)
				)
			)
			(pin input line
				(at 25.4 -35.56 180)
				(length 7.62)
				(name "PC6"
					(effects
						(font
							(size 1.27 1.27)
						)
					)
				)
				(number "9"
					(effects
						(font
							(size 1.27 1.27)
						)
					)
				)
			)
		)
	)
	(symbol "MC68HC11A8CC"
		(pin_names
			(offset 1.016)
		)
		(exclude_from_sim no)
		(in_bom yes)
		(on_board yes)
		(property "Reference" "U"
			(at -16.51 50.8 0)
			(effects
				(font
					(size 1.27 1.27)
				)
				(justify left)
			)
		)
		(property "Value" "MC68HC11A8CC"
			(at 1.27 50.8 0)
			(effects
				(font
					(size 1.27 1.27)
				)
				(justify left)
			)
		)
		(property "Footprint" ""
			(at 0 -5.08 0)
			(effects
				(font
					(size 1.27 1.27)
				)
				(hide yes)
			)
		)
		(property "Datasheet" ""
			(at 0 -5.08 0)
			(effects
				(font
					(size 1.27 1.27)
				)
				(hide yes)
			)
		)
		(property "Description" "8K ROM, 256B RAM, 512B EEPROM"
			(at 0 0 0)
			(effects
				(font
					(size 1.27 1.27)
				)
				(hide yes)
			)
		)
		(property "ki_keywords" "HC11 MCU Microcotroller"
			(at 0 0 0)
			(effects
				(font
					(size 1.27 1.27)
				)
				(hide yes)
			)
		)
		(symbol "MC68HC11A8CC_0_1"
			(rectangle
				(start -16.51 49.53)
				(end 16.51 -49.53)
				(stroke
					(width 0.254)
					(type default)
				)
				(fill
					(type background)
				)
			)
		)
		(symbol "MC68HC11A8CC_1_1"
			(pin power_in line
				(at 0 -53.34 90)
				(length 3.81)
				(name "VSS"
					(effects
						(font
							(size 1.27 1.27)
						)
					)
				)
				(number "1"
					(effects
						(font
							(size 1.27 1.27)
						)
					)
				)
			)
			(pin bidirectional line
				(at 20.32 2.54 180)
				(length 3.81)
				(name "AD1/PC1"
					(effects
						(font
							(size 1.27 1.27)
						)
					)
				)
				(number "10"
					(effects
						(font
							(size 1.27 1.27)
						)
					)
				)
			)
			(pin bidirectional line
				(at 20.32 0 180)
				(length 3.81)
				(name "AD2/PC2"
					(effects
						(font
							(size 1.27 1.27)
						)
					)
				)
				(number "11"
					(effects
						(font
							(size 1.27 1.27)
						)
					)
				)
			)
			(pin bidirectional line
				(at 20.32 -2.54 180)
				(length 3.81)
				(name "AD3/PC3"
					(effects
						(font
							(size 1.27 1.27)
						)
					)
				)
				(number "12"
					(effects
						(font
							(size 1.27 1.27)
						)
					)
				)
			)
			(pin bidirectional line
				(at 20.32 -5.08 180)
				(length 3.81)
				(name "AD4/PC4"
					(effects
						(font
							(size 1.27 1.27)
						)
					)
				)
				(number "13"
					(effects
						(font
							(size 1.27 1.27)
						)
					)
				)
			)
			(pin bidirectional line
				(at 20.32 -7.62 180)
				(length 3.81)
				(name "AD5/PC5"
					(effects
						(font
							(size 1.27 1.27)
						)
					)
				)
				(number "14"
					(effects
						(font
							(size 1.27 1.27)
						)
					)
				)
			)
			(pin bidirectional line
				(at 20.32 -10.16 180)
				(length 3.81)
				(name "AD6/PC6"
					(effects
						(font
							(size 1.27 1.27)
						)
					)
				)
				(number "15"
					(effects
						(font
							(size 1.27 1.27)
						)
					)
				)
			)
			(pin bidirectional line
				(at 20.32 -12.7 180)
				(length 3.81)
				(name "AD7/PC7"
					(effects
						(font
							(size 1.27 1.27)
						)
					)
				)
				(number "16"
					(effects
						(font
							(size 1.27 1.27)
						)
					)
				)
			)
			(pin input line
				(at -20.32 10.16 0)
				(length 3.81)
				(name "~{RESET}"
					(effects
						(font
							(size 1.27 1.27)
						)
					)
				)
				(number "17"
					(effects
						(font
							(size 1.27 1.27)
						)
					)
				)
			)
			(pin input line
				(at -20.32 0 0)
				(length 3.81)
				(name "~{XIRQ}"
					(effects
						(font
							(size 1.27 1.27)
						)
					)
				)
				(number "18"
					(effects
						(font
							(size 1.27 1.27)
						)
					)
				)
			)
			(pin input line
				(at -20.32 2.54 0)
				(length 3.81)
				(name "~{IRQ}"
					(effects
						(font
							(size 1.27 1.27)
						)
					)
				)
				(number "19"
					(effects
						(font
							(size 1.27 1.27)
						)
					)
				)
			)
			(pin input line
				(at -20.32 -5.08 0)
				(length 3.81)
				(name "MODB"
					(effects
						(font
							(size 1.27 1.27)
						)
					)
				)
				(number "2"
					(effects
						(font
							(size 1.27 1.27)
						)
					)
				)
			)
			(pin bidirectional line
				(at 20.32 45.72 180)
				(length 3.81)
				(name "RXD/PD0"
					(effects
						(font
							(size 1.27 1.27)
						)
					)
				)
				(number "20"
					(effects
						(font
							(size 1.27 1.27)
						)
					)
				)
			)
			(pin bidirectional line
				(at 20.32 43.18 180)
				(length 3.81)
				(name "TXD/PD1"
					(effects
						(font
							(size 1.27 1.27)
						)
					)
				)
				(number "21"
					(effects
						(font
							(size 1.27 1.27)
						)
					)
				)
			)
			(pin bidirectional line
				(at 20.32 40.64 180)
				(length 3.81)
				(name "MIS/PD2"
					(effects
						(font
							(size 1.27 1.27)
						)
					)
				)
				(number "22"
					(effects
						(font
							(size 1.27 1.27)
						)
					)
				)
			)
			(pin bidirectional line
				(at 20.32 38.1 180)
				(length 3.81)
				(name "MOS/PD3"
					(effects
						(font
							(size 1.27 1.27)
						)
					)
				)
				(number "23"
					(effects
						(font
							(size 1.27 1.27)
						)
					)
				)
			)
			(pin bidirectional line
				(at 20.32 35.56 180)
				(length 3.81)
				(name "SCK/PD4"
					(effects
						(font
							(size 1.27 1.27)
						)
					)
				)
				(number "24"
					(effects
						(font
							(size 1.27 1.27)
						)
					)
				)
			)
			(pin bidirectional line
				(at 20.32 33.02 180)
				(length 3.81)
				(name "SS/PD5"
					(effects
						(font
							(size 1.27 1.27)
						)
					)
				)
				(number "25"
					(effects
						(font
							(size 1.27 1.27)
						)
					)
				)
			)
			(pin power_in line
				(at 0 53.34 270)
				(length 3.81)
				(name "VDD"
					(effects
						(font
							(size 1.27 1.27)
						)
					)
				)
				(number "26"
					(effects
						(font
							(size 1.27 1.27)
						)
					)
				)
			)
			(pin bidirectional line
				(at 20.32 10.16 180)
				(length 3.81)
				(name "PA7"
					(effects
						(font
							(size 1.27 1.27)
						)
					)
				)
				(number "27"
					(effects
						(font
							(size 1.27 1.27)
						)
					)
				)
			)
			(pin output line
				(at 20.32 12.7 180)
				(length 3.81)
				(name "PA6"
					(effects
						(font
							(size 1.27 1.27)
						)
					)
				)
				(number "28"
					(effects
						(font
							(size 1.27 1.27)
						)
					)
				)
			)
			(pin output line
				(at 20.32 15.24 180)
				(length 3.81)
				(name "PA5"
					(effects
						(font
							(size 1.27 1.27)
						)
					)
				)
				(number "29"
					(effects
						(font
							(size 1.27 1.27)
						)
					)
				)
			)
			(pin bidirectional line
				(at -20.32 -2.54 0)
				(length 3.81)
				(name "MODA"
					(effects
						(font
							(size 1.27 1.27)
						)
					)
				)
				(number "3"
					(effects
						(font
							(size 1.27 1.27)
						)
					)
				)
			)
			(pin output line
				(at 20.32 17.78 180)
				(length 3.81)
				(name "PA4"
					(effects
						(font
							(size 1.27 1.27)
						)
					)
				)
				(number "30"
					(effects
						(font
							(size 1.27 1.27)
						)
					)
				)
			)
			(pin output line
				(at 20.32 20.32 180)
				(length 3.81)
				(name "PA3"
					(effects
						(font
							(size 1.27 1.27)
						)
					)
				)
				(number "31"
					(effects
						(font
							(size 1.27 1.27)
						)
					)
				)
			)
			(pin input line
				(at 20.32 22.86 180)
				(length 3.81)
				(name "PA2"
					(effects
						(font
							(size 1.27 1.27)
						)
					)
				)
				(number "32"
					(effects
						(font
							(size 1.27 1.27)
						)
					)
				)
			)
			(pin input line
				(at 20.32 25.4 180)
				(length 3.81)
				(name "PA1"
					(effects
						(font
							(size 1.27 1.27)
						)
					)
				)
				(number "33"
					(effects
						(font
							(size 1.27 1.27)
						)
					)
				)
			)
			(pin input line
				(at 20.32 27.94 180)
				(length 3.81)
				(name "PA0"
					(effects
						(font
							(size 1.27 1.27)
						)
					)
				)
				(number "34"
					(effects
						(font
							(size 1.27 1.27)
						)
					)
				)
			)
			(pin output line
				(at 20.32 -35.56 180)
				(length 3.81)
				(name "A15/PB7"
					(effects
						(font
							(size 1.27 1.27)
						)
					)
				)
				(number "35"
					(effects
						(font
							(size 1.27 1.27)
						)
					)
				)
			)
			(pin output line
				(at 20.32 -33.02 180)
				(length 3.81)
				(name "A14/PB6"
					(effects
						(font
							(size 1.27 1.27)
						)
					)
				)
				(number "36"
					(effects
						(font
							(size 1.27 1.27)
						)
					)
				)
			)
			(pin output line
				(at 20.32 -30.48 180)
				(length 3.81)
				(name "A13/PB5"
					(effects
						(font
							(size 1.27 1.27)
						)
					)
				)
				(number "37"
					(effects
						(font
							(size 1.27 1.27)
						)
					)
				)
			)
			(pin output line
				(at 20.32 -27.94 180)
				(length 3.81)
				(name "A12/PB4"
					(effects
						(font
							(size 1.27 1.27)
						)
					)
				)
				(number "38"
					(effects
						(font
							(size 1.27 1.27)
						)
					)
				)
			)
			(pin output line
				(at 20.32 -25.4 180)
				(length 3.81)
				(name "A11/PB3"
					(effects
						(font
							(size 1.27 1.27)
						)
					)
				)
				(number "39"
					(effects
						(font
							(size 1.27 1.27)
						)
					)
				)
			)
			(pin output line
				(at 20.32 -45.72 180)
				(length 3.81)
				(name "AS"
					(effects
						(font
							(size 1.27 1.27)
						)
					)
				)
				(number "4"
					(effects
						(font
							(size 1.27 1.27)
						)
					)
				)
			)
			(pin output line
				(at 20.32 -22.86 180)
				(length 3.81)
				(name "A10/PB2"
					(effects
						(font
							(size 1.27 1.27)
						)
					)
				)
				(number "40"
					(effects
						(font
							(size 1.27 1.27)
						)
					)
				)
			)
			(pin output line
				(at 20.32 -20.32 180)
				(length 3.81)
				(name "A9/PB1"
					(effects
						(font
							(size 1.27 1.27)
						)
					)
				)
				(number "41"
					(effects
						(font
							(size 1.27 1.27)
						)
					)
				)
			)
			(pin output line
				(at 20.32 -17.78 180)
				(length 3.81)
				(name "A8/PB0"
					(effects
						(font
							(size 1.27 1.27)
						)
					)
				)
				(number "42"
					(effects
						(font
							(size 1.27 1.27)
						)
					)
				)
			)
			(pin input line
				(at -20.32 -17.78 0)
				(length 3.81)
				(name "PE0"
					(effects
						(font
							(size 1.27 1.27)
						)
					)
				)
				(number "43"
					(effects
						(font
							(size 1.27 1.27)
						)
					)
				)
			)
			(pin input line
				(at -20.32 -27.94 0)
				(length 3.81)
				(name "PE4"
					(effects
						(font
							(size 1.27 1.27)
						)
					)
				)
				(number "44"
					(effects
						(font
							(size 1.27 1.27)
						)
					)
				)
			)
			(pin input line
				(at -20.32 -20.32 0)
				(length 3.81)
				(name "PE1"
					(effects
						(font
							(size 1.27 1.27)
						)
					)
				)
				(number "45"
					(effects
						(font
							(size 1.27 1.27)
						)
					)
				)
			)
			(pin input line
				(at -20.32 -30.48 0)
				(length 3.81)
				(name "PE5"
					(effects
						(font
							(size 1.27 1.27)
						)
					)
				)
				(number "46"
					(effects
						(font
							(size 1.27 1.27)
						)
					)
				)
			)
			(pin input line
				(at -20.32 -22.86 0)
				(length 3.81)
				(name "PE2"
					(effects
						(font
							(size 1.27 1.27)
						)
					)
				)
				(number "47"
					(effects
						(font
							(size 1.27 1.27)
						)
					)
				)
			)
			(pin input line
				(at -20.32 -33.02 0)
				(length 3.81)
				(name "PE6"
					(effects
						(font
							(size 1.27 1.27)
						)
					)
				)
				(number "48"
					(effects
						(font
							(size 1.27 1.27)
						)
					)
				)
			)
			(pin input line
				(at -20.32 -25.4 0)
				(length 3.81)
				(name "PE3"
					(effects
						(font
							(size 1.27 1.27)
						)
					)
				)
				(number "49"
					(effects
						(font
							(size 1.27 1.27)
						)
					)
				)
			)
			(pin output line
				(at 20.32 -43.18 180)
				(length 3.81)
				(name "E"
					(effects
						(font
							(size 1.27 1.27)
						)
					)
				)
				(number "5"
					(effects
						(font
							(size 1.27 1.27)
						)
					)
				)
			)
			(pin input line
				(at -20.32 -35.56 0)
				(length 3.81)
				(name "PE7"
					(effects
						(font
							(size 1.27 1.27)
						)
					)
				)
				(number "50"
					(effects
						(font
							(size 1.27 1.27)
						)
					)
				)
			)
			(pin input line
				(at -20.32 -45.72 0)
				(length 3.81)
				(name "VRL"
					(effects
						(font
							(size 1.27 1.27)
						)
					)
				)
				(number "51"
					(effects
						(font
							(size 1.27 1.27)
						)
					)
				)
			)
			(pin input line
				(at -20.32 -40.64 0)
				(length 3.81)
				(name "VRH"
					(effects
						(font
							(size 1.27 1.27)
						)
					)
				)
				(number "52"
					(effects
						(font
							(size 1.27 1.27)
						)
					)
				)
			)
			(pin output line
				(at 20.32 -40.64 180)
				(length 3.81)
				(name "R/W"
					(effects
						(font
							(size 1.27 1.27)
						)
					)
				)
				(number "6"
					(effects
						(font
							(size 1.27 1.27)
						)
					)
				)
			)
			(pin input line
				(at -20.32 45.72 0)
				(length 3.81)
				(name "EXTAL"
					(effects
						(font
							(size 1.27 1.27)
						)
					)
				)
				(number "7"
					(effects
						(font
							(size 1.27 1.27)
						)
					)
				)
			)
			(pin output line
				(at -20.32 40.64 0)
				(length 3.81)
				(name "XTAL"
					(effects
						(font
							(size 1.27 1.27)
						)
					)
				)
				(number "8"
					(effects
						(font
							(size 1.27 1.27)
						)
					)
				)
			)
			(pin bidirectional line
				(at 20.32 5.08 180)
				(length 3.81)
				(name "AD0/PC0"
					(effects
						(font
							(size 1.27 1.27)
						)
					)
				)
				(number "9"
					(effects
						(font
							(size 1.27 1.27)
						)
					)
				)
			)
		)
	)
	(symbol "MC68HC11F1CC"
		(pin_names
			(offset 1.016)
		)
		(exclude_from_sim no)
		(in_bom yes)
		(on_board yes)
		(property "Reference" "U"
			(at -16.51 71.12 0)
			(effects
				(font
					(size 1.27 1.27)
				)
				(justify left)
			)
		)
		(property "Value" "MC68HC11F1CC"
			(at 1.27 71.12 0)
			(effects
				(font
					(size 1.27 1.27)
				)
				(justify left)
			)
		)
		(property "Footprint" "Package_LCC:PLCC-68"
			(at 15.24 -77.47 0)
			(effects
				(font
					(size 1.27 1.27)
				)
				(hide yes)
			)
		)
		(property "Datasheet" "http://cache.freescale.com/files/microcontrollers/doc/data_sheet/MC68HC11F1.pdf"
			(at 0 0 0)
			(effects
				(font
					(size 1.27 1.27)
				)
				(hide yes)
			)
		)
		(property "Description" "ROMless, 1K RAM, 512B EEPROM, PLCC-68"
			(at 0 0 0)
			(effects
				(font
					(size 1.27 1.27)
				)
				(hide yes)
			)
		)
		(property "ki_keywords" "HC11 MCU Microcontroller"
			(at 0 0 0)
			(effects
				(font
					(size 1.27 1.27)
				)
				(hide yes)
			)
		)
		(property "ki_fp_filters" "PLCC*"
			(at 0 0 0)
			(effects
				(font
					(size 1.27 1.27)
				)
				(hide yes)
			)
		)
		(symbol "MC68HC11F1CC_0_1"
			(rectangle
				(start -16.51 69.85)
				(end 16.51 -74.93)
				(stroke
					(width 0.254)
					(type default)
				)
				(fill
					(type background)
				)
			)
		)
		(symbol "MC68HC11F1CC_1_1"
			(pin power_in line
				(at 0 -78.74 90)
				(length 3.81)
				(name "VSS"
					(effects
						(font
							(size 1.27 1.27)
						)
					)
				)
				(number "1"
					(effects
						(font
							(size 1.27 1.27)
						)
					)
				)
			)
			(pin bidirectional line
				(at 20.32 22.86 180)
				(length 3.81)
				(name "D1/PC1"
					(effects
						(font
							(size 1.27 1.27)
						)
					)
				)
				(number "10"
					(effects
						(font
							(size 1.27 1.27)
						)
					)
				)
			)
			(pin bidirectional line
				(at 20.32 20.32 180)
				(length 3.81)
				(name "D2/PC2"
					(effects
						(font
							(size 1.27 1.27)
						)
					)
				)
				(number "11"
					(effects
						(font
							(size 1.27 1.27)
						)
					)
				)
			)
			(pin bidirectional line
				(at 20.32 17.78 180)
				(length 3.81)
				(name "D3/PC3"
					(effects
						(font
							(size 1.27 1.27)
						)
					)
				)
				(number "12"
					(effects
						(font
							(size 1.27 1.27)
						)
					)
				)
			)
			(pin bidirectional line
				(at 20.32 15.24 180)
				(length 3.81)
				(name "D4/PC4"
					(effects
						(font
							(size 1.27 1.27)
						)
					)
				)
				(number "13"
					(effects
						(font
							(size 1.27 1.27)
						)
					)
				)
			)
			(pin bidirectional line
				(at 20.32 12.7 180)
				(length 3.81)
				(name "D5/PC5"
					(effects
						(font
							(size 1.27 1.27)
						)
					)
				)
				(number "14"
					(effects
						(font
							(size 1.27 1.27)
						)
					)
				)
			)
			(pin bidirectional line
				(at 20.32 10.16 180)
				(length 3.81)
				(name "D6/PC6"
					(effects
						(font
							(size 1.27 1.27)
						)
					)
				)
				(number "15"
					(effects
						(font
							(size 1.27 1.27)
						)
					)
				)
			)
			(pin bidirectional line
				(at 20.32 7.62 180)
				(length 3.81)
				(name "D7/PC7"
					(effects
						(font
							(size 1.27 1.27)
						)
					)
				)
				(number "16"
					(effects
						(font
							(size 1.27 1.27)
						)
					)
				)
			)
			(pin input line
				(at -20.32 22.86 0)
				(length 3.81)
				(name "~{RESET}"
					(effects
						(font
							(size 1.27 1.27)
						)
					)
				)
				(number "17"
					(effects
						(font
							(size 1.27 1.27)
						)
					)
				)
			)
			(pin input line
				(at -20.32 -12.7 0)
				(length 3.81)
				(name "~{XIRQ}"
					(effects
						(font
							(size 1.27 1.27)
						)
					)
				)
				(number "18"
					(effects
						(font
							(size 1.27 1.27)
						)
					)
				)
			)
			(pin input line
				(at -20.32 -10.16 0)
				(length 3.81)
				(name "~{IRQ}"
					(effects
						(font
							(size 1.27 1.27)
						)
					)
				)
				(number "19"
					(effects
						(font
							(size 1.27 1.27)
						)
					)
				)
			)
			(pin input line
				(at -20.32 -17.78 0)
				(length 3.81)
				(name "MODB"
					(effects
						(font
							(size 1.27 1.27)
						)
					)
				)
				(number "2"
					(effects
						(font
							(size 1.27 1.27)
						)
					)
				)
			)
			(pin bidirectional line
				(at 20.32 -60.96 180)
				(length 3.81)
				(name "CSPROG/PG7"
					(effects
						(font
							(size 1.27 1.27)
						)
					)
				)
				(number "20"
					(effects
						(font
							(size 1.27 1.27)
						)
					)
				)
			)
			(pin bidirectional line
				(at 20.32 -58.42 180)
				(length 3.81)
				(name "CSGEN/PG6"
					(effects
						(font
							(size 1.27 1.27)
						)
					)
				)
				(number "21"
					(effects
						(font
							(size 1.27 1.27)
						)
					)
				)
			)
			(pin bidirectional line
				(at 20.32 -55.88 180)
				(length 3.81)
				(name "CSIO1/PG5"
					(effects
						(font
							(size 1.27 1.27)
						)
					)
				)
				(number "22"
					(effects
						(font
							(size 1.27 1.27)
						)
					)
				)
			)
			(pin bidirectional line
				(at 20.32 -53.34 180)
				(length 3.81)
				(name "CSIO2/PG4"
					(effects
						(font
							(size 1.27 1.27)
						)
					)
				)
				(number "23"
					(effects
						(font
							(size 1.27 1.27)
						)
					)
				)
			)
			(pin bidirectional line
				(at 20.32 -50.8 180)
				(length 3.81)
				(name "PG3"
					(effects
						(font
							(size 1.27 1.27)
						)
					)
				)
				(number "24"
					(effects
						(font
							(size 1.27 1.27)
						)
					)
				)
			)
			(pin bidirectional line
				(at 20.32 -48.26 180)
				(length 3.81)
				(name "PG2"
					(effects
						(font
							(size 1.27 1.27)
						)
					)
				)
				(number "25"
					(effects
						(font
							(size 1.27 1.27)
						)
					)
				)
			)
			(pin bidirectional line
				(at 20.32 -45.72 180)
				(length 3.81)
				(name "PG1"
					(effects
						(font
							(size 1.27 1.27)
						)
					)
				)
				(number "26"
					(effects
						(font
							(size 1.27 1.27)
						)
					)
				)
			)
			(pin bidirectional line
				(at 20.32 -43.18 180)
				(length 3.81)
				(name "PG0"
					(effects
						(font
							(size 1.27 1.27)
						)
					)
				)
				(number "27"
					(effects
						(font
							(size 1.27 1.27)
						)
					)
				)
			)
			(pin bidirectional line
				(at 20.32 66.04 180)
				(length 3.81)
				(name "RXD/PD0"
					(effects
						(font
							(size 1.27 1.27)
						)
					)
				)
				(number "28"
					(effects
						(font
							(size 1.27 1.27)
						)
					)
				)
			)
			(pin bidirectional line
				(at 20.32 63.5 180)
				(length 3.81)
				(name "TXD/PD1"
					(effects
						(font
							(size 1.27 1.27)
						)
					)
				)
				(number "29"
					(effects
						(font
							(size 1.27 1.27)
						)
					)
				)
			)
			(pin bidirectional line
				(at -20.32 -15.24 0)
				(length 3.81)
				(name "MODA"
					(effects
						(font
							(size 1.27 1.27)
						)
					)
				)
				(number "3"
					(effects
						(font
							(size 1.27 1.27)
						)
					)
				)
			)
			(pin bidirectional line
				(at 20.32 60.96 180)
				(length 3.81)
				(name "MIS/PD2"
					(effects
						(font
							(size 1.27 1.27)
						)
					)
				)
				(number "30"
					(effects
						(font
							(size 1.27 1.27)
						)
					)
				)
			)
			(pin bidirectional line
				(at 20.32 58.42 180)
				(length 3.81)
				(name "MOS/PD3"
					(effects
						(font
							(size 1.27 1.27)
						)
					)
				)
				(number "31"
					(effects
						(font
							(size 1.27 1.27)
						)
					)
				)
			)
			(pin bidirectional line
				(at 20.32 55.88 180)
				(length 3.81)
				(name "SCK/PD4"
					(effects
						(font
							(size 1.27 1.27)
						)
					)
				)
				(number "32"
					(effects
						(font
							(size 1.27 1.27)
						)
					)
				)
			)
			(pin bidirectional line
				(at 20.32 53.34 180)
				(length 3.81)
				(name "SS/PD5"
					(effects
						(font
							(size 1.27 1.27)
						)
					)
				)
				(number "33"
					(effects
						(font
							(size 1.27 1.27)
						)
					)
				)
			)
			(pin power_in line
				(at 0 73.66 270)
				(length 3.81)
				(name "VDD"
					(effects
						(font
							(size 1.27 1.27)
						)
					)
				)
				(number "34"
					(effects
						(font
							(size 1.27 1.27)
						)
					)
				)
			)
			(pin bidirectional line
				(at 20.32 30.48 180)
				(length 3.81)
				(name "PA7"
					(effects
						(font
							(size 1.27 1.27)
						)
					)
				)
				(number "35"
					(effects
						(font
							(size 1.27 1.27)
						)
					)
				)
			)
			(pin bidirectional line
				(at 20.32 33.02 180)
				(length 3.81)
				(name "PA6"
					(effects
						(font
							(size 1.27 1.27)
						)
					)
				)
				(number "36"
					(effects
						(font
							(size 1.27 1.27)
						)
					)
				)
			)
			(pin bidirectional line
				(at 20.32 35.56 180)
				(length 3.81)
				(name "PA5"
					(effects
						(font
							(size 1.27 1.27)
						)
					)
				)
				(number "37"
					(effects
						(font
							(size 1.27 1.27)
						)
					)
				)
			)
			(pin bidirectional line
				(at 20.32 38.1 180)
				(length 3.81)
				(name "PA4"
					(effects
						(font
							(size 1.27 1.27)
						)
					)
				)
				(number "38"
					(effects
						(font
							(size 1.27 1.27)
						)
					)
				)
			)
			(pin bidirectional line
				(at 20.32 40.64 180)
				(length 3.81)
				(name "PA3"
					(effects
						(font
							(size 1.27 1.27)
						)
					)
				)
				(number "39"
					(effects
						(font
							(size 1.27 1.27)
						)
					)
				)
			)
			(pin output line
				(at 20.32 -68.58 180)
				(length 3.81)
				(name "E"
					(effects
						(font
							(size 1.27 1.27)
						)
					)
				)
				(number "4"
					(effects
						(font
							(size 1.27 1.27)
						)
					)
				)
			)
			(pin bidirectional line
				(at 20.32 43.18 180)
				(length 3.81)
				(name "PA2"
					(effects
						(font
							(size 1.27 1.27)
						)
					)
				)
				(number "40"
					(effects
						(font
							(size 1.27 1.27)
						)
					)
				)
			)
			(pin bidirectional line
				(at 20.32 45.72 180)
				(length 3.81)
				(name "PA1"
					(effects
						(font
							(size 1.27 1.27)
						)
					)
				)
				(number "41"
					(effects
						(font
							(size 1.27 1.27)
						)
					)
				)
			)
			(pin bidirectional line
				(at 20.32 48.26 180)
				(length 3.81)
				(name "PA0"
					(effects
						(font
							(size 1.27 1.27)
						)
					)
				)
				(number "42"
					(effects
						(font
							(size 1.27 1.27)
						)
					)
				)
			)
			(pin output line
				(at 20.32 -38.1 180)
				(length 3.81)
				(name "A15/PB7"
					(effects
						(font
							(size 1.27 1.27)
						)
					)
				)
				(number "43"
					(effects
						(font
							(size 1.27 1.27)
						)
					)
				)
			)
			(pin output line
				(at 20.32 -35.56 180)
				(length 3.81)
				(name "A14/PB6"
					(effects
						(font
							(size 1.27 1.27)
						)
					)
				)
				(number "44"
					(effects
						(font
							(size 1.27 1.27)
						)
					)
				)
			)
			(pin output line
				(at 20.32 -33.02 180)
				(length 3.81)
				(name "A13/PB5"
					(effects
						(font
							(size 1.27 1.27)
						)
					)
				)
				(number "45"
					(effects
						(font
							(size 1.27 1.27)
						)
					)
				)
			)
			(pin output line
				(at 20.32 -30.48 180)
				(length 3.81)
				(name "A12/PB4"
					(effects
						(font
							(size 1.27 1.27)
						)
					)
				)
				(number "46"
					(effects
						(font
							(size 1.27 1.27)
						)
					)
				)
			)
			(pin output line
				(at 20.32 -27.94 180)
				(length 3.81)
				(name "A11/PB3"
					(effects
						(font
							(size 1.27 1.27)
						)
					)
				)
				(number "47"
					(effects
						(font
							(size 1.27 1.27)
						)
					)
				)
			)
			(pin output line
				(at 20.32 -25.4 180)
				(length 3.81)
				(name "A10/PB2"
					(effects
						(font
							(size 1.27 1.27)
						)
					)
				)
				(number "48"
					(effects
						(font
							(size 1.27 1.27)
						)
					)
				)
			)
			(pin output line
				(at 20.32 -22.86 180)
				(length 3.81)
				(name "A9/PB1"
					(effects
						(font
							(size 1.27 1.27)
						)
					)
				)
				(number "49"
					(effects
						(font
							(size 1.27 1.27)
						)
					)
				)
			)
			(pin output line
				(at 20.32 -66.04 180)
				(length 3.81)
				(name "R/W"
					(effects
						(font
							(size 1.27 1.27)
						)
					)
				)
				(number "5"
					(effects
						(font
							(size 1.27 1.27)
						)
					)
				)
			)
			(pin output line
				(at 20.32 -20.32 180)
				(length 3.81)
				(name "A8/PB0"
					(effects
						(font
							(size 1.27 1.27)
						)
					)
				)
				(number "50"
					(effects
						(font
							(size 1.27 1.27)
						)
					)
				)
			)
			(pin output line
				(at 20.32 -15.24 180)
				(length 3.81)
				(name "A7/PF7"
					(effects
						(font
							(size 1.27 1.27)
						)
					)
				)
				(number "51"
					(effects
						(font
							(size 1.27 1.27)
						)
					)
				)
			)
			(pin output line
				(at 20.32 -12.7 180)
				(length 3.81)
				(name "A6/PF6"
					(effects
						(font
							(size 1.27 1.27)
						)
					)
				)
				(number "52"
					(effects
						(font
							(size 1.27 1.27)
						)
					)
				)
			)
			(pin output line
				(at 20.32 -10.16 180)
				(length 3.81)
				(name "A5/PF5"
					(effects
						(font
							(size 1.27 1.27)
						)
					)
				)
				(number "53"
					(effects
						(font
							(size 1.27 1.27)
						)
					)
				)
			)
			(pin output line
				(at 20.32 -7.62 180)
				(length 3.81)
				(name "A4/PF4"
					(effects
						(font
							(size 1.27 1.27)
						)
					)
				)
				(number "54"
					(effects
						(font
							(size 1.27 1.27)
						)
					)
				)
			)
			(pin output line
				(at 20.32 -5.08 180)
				(length 3.81)
				(name "A3/PF3"
					(effects
						(font
							(size 1.27 1.27)
						)
					)
				)
				(number "55"
					(effects
						(font
							(size 1.27 1.27)
						)
					)
				)
			)
			(pin output line
				(at 20.32 -2.54 180)
				(length 3.81)
				(name "A2/PF2"
					(effects
						(font
							(size 1.27 1.27)
						)
					)
				)
				(number "56"
					(effects
						(font
							(size 1.27 1.27)
						)
					)
				)
			)
			(pin output line
				(at 20.32 0 180)
				(length 3.81)
				(name "A1/PF1"
					(effects
						(font
							(size 1.27 1.27)
						)
					)
				)
				(number "57"
					(effects
						(font
							(size 1.27 1.27)
						)
					)
				)
			)
			(pin output line
				(at 20.32 2.54 180)
				(length 3.81)
				(name "A0/PF0"
					(effects
						(font
							(size 1.27 1.27)
						)
					)
				)
				(number "58"
					(effects
						(font
							(size 1.27 1.27)
						)
					)
				)
			)
			(pin input line
				(at -20.32 -43.18 0)
				(length 3.81)
				(name "PE0"
					(effects
						(font
							(size 1.27 1.27)
						)
					)
				)
				(number "59"
					(effects
						(font
							(size 1.27 1.27)
						)
					)
				)
			)
			(pin output line
				(at -20.32 60.96 0)
				(length 3.81)
				(name "EXTAL"
					(effects
						(font
							(size 1.27 1.27)
						)
					)
				)
				(number "6"
					(effects
						(font
							(size 1.27 1.27)
						)
					)
				)
			)
			(pin input line
				(at -20.32 -53.34 0)
				(length 3.81)
				(name "PE4"
					(effects
						(font
							(size 1.27 1.27)
						)
					)
				)
				(number "60"
					(effects
						(font
							(size 1.27 1.27)
						)
					)
				)
			)
			(pin input line
				(at -20.32 -45.72 0)
				(length 3.81)
				(name "PE1"
					(effects
						(font
							(size 1.27 1.27)
						)
					)
				)
				(number "61"
					(effects
						(font
							(size 1.27 1.27)
						)
					)
				)
			)
			(pin input line
				(at -20.32 -55.88 0)
				(length 3.81)
				(name "PE5"
					(effects
						(font
							(size 1.27 1.27)
						)
					)
				)
				(number "62"
					(effects
						(font
							(size 1.27 1.27)
						)
					)
				)
			)
			(pin input line
				(at -20.32 -48.26 0)
				(length 3.81)
				(name "PE2"
					(effects
						(font
							(size 1.27 1.27)
						)
					)
				)
				(number "63"
					(effects
						(font
							(size 1.27 1.27)
						)
					)
				)
			)
			(pin input line
				(at -20.32 -58.42 0)
				(length 3.81)
				(name "PE6"
					(effects
						(font
							(size 1.27 1.27)
						)
					)
				)
				(number "64"
					(effects
						(font
							(size 1.27 1.27)
						)
					)
				)
			)
			(pin input line
				(at -20.32 -50.8 0)
				(length 3.81)
				(name "PE3"
					(effects
						(font
							(size 1.27 1.27)
						)
					)
				)
				(number "65"
					(effects
						(font
							(size 1.27 1.27)
						)
					)
				)
			)
			(pin input line
				(at -20.32 -60.96 0)
				(length 3.81)
				(name "PE7"
					(effects
						(font
							(size 1.27 1.27)
						)
					)
				)
				(number "66"
					(effects
						(font
							(size 1.27 1.27)
						)
					)
				)
			)
			(pin input line
				(at -20.32 -71.12 0)
				(length 3.81)
				(name "VRL"
					(effects
						(font
							(size 1.27 1.27)
						)
					)
				)
				(number "67"
					(effects
						(font
							(size 1.27 1.27)
						)
					)
				)
			)
			(pin input line
				(at -20.32 -66.04 0)
				(length 3.81)
				(name "VRH"
					(effects
						(font
							(size 1.27 1.27)
						)
					)
				)
				(number "68"
					(effects
						(font
							(size 1.27 1.27)
						)
					)
				)
			)
			(pin input line
				(at -20.32 55.88 0)
				(length 3.81)
				(name "XTAL"
					(effects
						(font
							(size 1.27 1.27)
						)
					)
				)
				(number "7"
					(effects
						(font
							(size 1.27 1.27)
						)
					)
				)
			)
			(pin output line
				(at 20.32 -71.12 180)
				(length 3.81)
				(name "4XOUT"
					(effects
						(font
							(size 1.27 1.27)
						)
					)
				)
				(number "8"
					(effects
						(font
							(size 1.27 1.27)
						)
					)
				)
			)
			(pin bidirectional line
				(at 20.32 25.4 180)
				(length 3.81)
				(name "D0/PC0"
					(effects
						(font
							(size 1.27 1.27)
						)
					)
				)
				(number "9"
					(effects
						(font
							(size 1.27 1.27)
						)
					)
				)
			)
		)
	)
	(symbol "68HC11A8"
		(extends "68HC11")
		(property "Reference" "U"
			(at 5.08 45.72 0)
			(effects
				(font
					(size 1.27 1.27)
				)
			)
		)
		(property "Value" "68HC11A8"
			(at 8.89 -45.72 0)
			(effects
				(font
					(size 1.27 1.27)
				)
			)
		)
		(property "Footprint" ""
			(at 0 0 0)
			(effects
				(font
					(size 1.27 1.27)
				)
				(hide yes)
			)
		)
		(property "Datasheet" ""
			(at 0 0 0)
			(effects
				(font
					(size 1.27 1.27)
				)
				(hide yes)
			)
		)
		(property "Description" "HC11 Microcontroller"
			(at 0 0 0)
			(effects
				(font
					(size 1.27 1.27)
				)
				(hide yes)
			)
		)
		(property "ki_keywords" "MCU Microcontroller HC11"
			(at 0 0 0)
			(effects
				(font
					(size 1.27 1.27)
				)
				(hide yes)
			)
		)
	)
	(symbol "MC68HC11A0CC"
		(extends "MC68HC11A8CC")
		(property "Reference" "U"
			(at -16.51 50.8 0)
			(effects
				(font
					(size 1.27 1.27)
				)
				(justify left)
			)
		)
		(property "Value" "MC68HC11A0CC"
			(at 1.27 50.8 0)
			(effects
				(font
					(size 1.27 1.27)
				)
				(justify left)
			)
		)
		(property "Footprint" ""
			(at 0 -5.08 0)
			(effects
				(font
					(size 1.27 1.27)
				)
				(hide yes)
			)
		)
		(property "Datasheet" ""
			(at 0 -5.08 0)
			(effects
				(font
					(size 1.27 1.27)
				)
				(hide yes)
			)
		)
		(property "Description" "ROMless, 256B RAM"
			(at 0 0 0)
			(effects
				(font
					(size 1.27 1.27)
				)
				(hide yes)
			)
		)
		(property "ki_keywords" "HC11 MCU Microcotroller"
			(at 0 0 0)
			(effects
				(font
					(size 1.27 1.27)
				)
				(hide yes)
			)
		)
	)
	(symbol "MC68HC11A1CC"
		(extends "MC68HC11A8CC")
		(property "Reference" "U"
			(at -16.51 50.8 0)
			(effects
				(font
					(size 1.27 1.27)
				)
				(justify left)
			)
		)
		(property "Value" "MC68HC11A1CC"
			(at 1.27 50.8 0)
			(effects
				(font
					(size 1.27 1.27)
				)
				(justify left)
			)
		)
		(property "Footprint" ""
			(at 0 -5.08 0)
			(effects
				(font
					(size 1.27 1.27)
				)
				(hide yes)
			)
		)
		(property "Datasheet" ""
			(at 0 -5.08 0)
			(effects
				(font
					(size 1.27 1.27)
				)
				(hide yes)
			)
		)
		(property "Description" "ROMLess, 256B RAM, 512B EEPROM"
			(at 0 0 0)
			(effects
				(font
					(size 1.27 1.27)
				)
				(hide yes)
			)
		)
		(property "ki_keywords" "HC11 MCU Microcotroller"
			(at 0 0 0)
			(effects
				(font
					(size 1.27 1.27)
				)
				(hide yes)
			)
		)
	)
	(symbol "MC68HC11A7CC"
		(extends "MC68HC11A8CC")
		(property "Reference" "U"
			(at -16.51 50.8 0)
			(effects
				(font
					(size 1.27 1.27)
				)
				(justify left)
			)
		)
		(property "Value" "MC68HC11A7CC"
			(at 1.27 50.8 0)
			(effects
				(font
					(size 1.27 1.27)
				)
				(justify left)
			)
		)
		(property "Footprint" ""
			(at 0 -5.08 0)
			(effects
				(font
					(size 1.27 1.27)
				)
				(hide yes)
			)
		)
		(property "Datasheet" ""
			(at 0 -5.08 0)
			(effects
				(font
					(size 1.27 1.27)
				)
				(hide yes)
			)
		)
		(property "Description" "8K ROM, 256B RAM, 512B EEPROM"
			(at 0 0 0)
			(effects
				(font
					(size 1.27 1.27)
				)
				(hide yes)
			)
		)
		(property "ki_keywords" "HC11 MCU Microcotroller"
			(at 0 0 0)
			(effects
				(font
					(size 1.27 1.27)
				)
				(hide yes)
			)
		)
	)
)